point_4/modelsim/log/transcript_subtraction_check.txt
# do scripts/simulate.tcl
# QuestaSim-64 vlog 10.7c Compiler 2018.08 Aug 17 2018
# Start time: 22:11:36 on Apr 06,2022
# vlog -sv ../tb/top.sv 
# ** Note: (vlog-2286) ../tb/top.sv(2): Using implicit +incdir+/software/mentor/questa10.7c/questasim/uvm-1.1d/../verilog_src/uvm-1.1d/src from import uvm_pkg
# -- Compiling package top_sv_unit
# -- Importing package mtiUvm.uvm_pkg (uvm-1.1d Built-in)
# ** Warning: ../tb/monitor.sv(49): (vlog-2240) Treating stand-alone use of function 'begin_tr' as an implicit VOID cast.
# ** Warning: ../tb/monitor_out.sv(48): (vlog-2240) Treating stand-alone use of function 'begin_tr' as an implicit VOID cast.
# -- Compiling module adder
# -- Compiling interface dut_if
# -- Compiling module DUT
# -- Compiling module top
# 
# Top level modules:
# 	top
# End time: 22:11:37 on Apr 06,2022, Elapsed time: 0:00:01
# Errors: 0, Warnings: 2
# vsim top 
# Start time: 22:11:37 on Apr 06,2022
# ** Note: (vsim-3813) Design is being optimized due to module recompilation...
# //  Questa Sim-64
# //  Version 10.7c linux_x86_64 Aug 17 2018
# //
# //  Copyright 1991-2018 Mentor Graphics Corporation
# //  All Rights Reserved.
# //
# //  QuestaSim and its associated documentation contain trade
# //  secrets and commercial or financial information that are the property of
# //  Mentor Graphics Corporation and are privileged, confidential,
# //  and exempt from disclosure under the Freedom of Information Act,
# //  5 U.S.C. Section 552. Furthermore, this information
# //  is prohibited from disclosure under the Trade Secrets Act,
# //  18 U.S.C. Section 1905.
# //
# Loading sv_std.std
# Loading mtiUvm.uvm_pkg
# Loading work.top_sv_unit(fast)
# Loading work.top(fast)
# Loading work.DUT(fast)
# Loading mtiUvm.questa_uvm_pkg(fast)
# Loading work.dut_if(fast)
# ** Warning: (vsim-3838) Variable '/top/out/data' written by continuous and procedural assignments. 
# One of the assignments is implicit. See ../src/DUT.sv(9).
#    Time: 0 ns  Iteration: 0  Instance: /top/sum File: ../src/DUT.sv Line: 3
# ** Warning: (vsim-3764) Stand-alone call to function 'begin_tr' treated as implicit void cast.
#    Time: 0 ns  Iteration: 0  Region: /top_sv_unit::driver File: ../tb/driver.sv Line: 67
# Loading /software/mentor/questa10.7c/questasim/uvm-1.1d/linux_x86_64/uvm_dpi.so
# ----------------------------------------------------------------
# UVM-1.1d
# (C) 2007-2013 Mentor Graphics Corporation
# (C) 2007-2013 Cadence Design Systems, Inc.
# (C) 2006-2013 Synopsys, Inc.
# (C) 2011-2013 Cypress Semiconductor Corp.
# ----------------------------------------------------------------
# 
#   ***********       IMPORTANT RELEASE NOTES         ************
# 
#   You are using a version of the UVM library that has been compiled
#   with `UVM_NO_DEPRECATED undefined.
#   See http://www.eda.org/svdb/view.php?id=3313 for more details.
# 
#   You are using a version of the UVM library that has been compiled
#   with `UVM_OBJECT_MUST_HAVE_CONSTRUCTOR undefined.
#   See http://www.eda.org/svdb/view.php?id=3770 for more details.
# 
#       (Specify +UVM_NO_RELNOTES to turn off this notice)
# 
# UVM_INFO verilog_src/questa_uvm_pkg-1.2/src/questa_uvm_pkg.sv(215) @ 0: reporter [Questa UVM] QUESTA_UVM-1.2.3
# UVM_INFO verilog_src/questa_uvm_pkg-1.2/src/questa_uvm_pkg.sv(216) @ 0: reporter [Questa UVM]  questa_uvm::init(+struct)
# UVM_INFO @ 0: reporter [RNTST] Running test simple_test...
# adder: input A = work.DUT(fast)d, input B = work.DUT(fast)d, output OUT = work.DUT(fast)d                 823                  30                 793
# adder: input A = 0000000000000000000000000000000000000000000000000000001100110111, input B = 0000000000000000000000000000000000000000000000000000000000011110, output OUT = 0000000000000000000000000000000000000000000000000000001100011001
# refmod: input A =                   823, input B =                    30, output OUT =                   853
# refmod: input A = 0000000000000000000000000000000000000000000000000000001100110111, input B = 0000000000000000000000000000000000000000000000000000000000011110, output OUT = 0000000000000000000000000000000000000000000000000000001101010101
# UVM_INFO @ 45: reporter [MISCMP] Miscompare for exp.data: lhs = 'h355 : rhs = 'h319
# UVM_INFO @ 45: reporter [MISCMP] 1 Miscompare(s) for object tr@825 vs. exp@617
# UVM_WARNING @ 45: uvm_test_top.env_h.comp [Comparator Mismatch] 
# adder: input A = work.DUT(fast)d, input B = work.DUT(fast)d, output OUT = work.DUT(fast)d                 700                  10                 690
# adder: input A = 0000000000000000000000000000000000000000000000000000001010111100, input B = 0000000000000000000000000000000000000000000000000000000000001010, output OUT = 0000000000000000000000000000000000000000000000000000001010110010
# refmod: input A =                   700, input B =                    10, output OUT =                   710
# refmod: input A = 0000000000000000000000000000000000000000000000000000001010111100, input B = 0000000000000000000000000000000000000000000000000000000000001010, output OUT = 0000000000000000000000000000000000000000000000000000001011000110
# UVM_INFO @ 75: reporter [MISCMP] Miscompare for exp.data: lhs = 'h2c6 : rhs = 'h2b2
# UVM_INFO @ 75: reporter [MISCMP] 1 Miscompare(s) for object tr@825 vs. exp@617
# UVM_WARNING @ 75: uvm_test_top.env_h.comp [Comparator Mismatch] 
# adder: input A = work.DUT(fast)d, input B = work.DUT(fast)d, output OUT = work.DUT(fast)d                 713                  16                 697
# adder: input A = 0000000000000000000000000000000000000000000000000000001011001001, input B = 0000000000000000000000000000000000000000000000000000000000010000, output OUT = 0000000000000000000000000000000000000000000000000000001010111001
# refmod: input A =                   713, input B =                    16, output OUT =                   729
# refmod: input A = 0000000000000000000000000000000000000000000000000000001011001001, input B = 0000000000000000000000000000000000000000000000000000000000010000, output OUT = 0000000000000000000000000000000000000000000000000000001011011001
# UVM_INFO @ 105: reporter [MISCMP] Miscompare for exp.data: lhs = 'h2d9 : rhs = 'h2b9
# UVM_INFO @ 105: reporter [MISCMP] 1 Miscompare(s) for object tr@825 vs. exp@617
# UVM_WARNING @ 105: uvm_test_top.env_h.comp [Comparator Mismatch] 
# adder: input A = work.DUT(fast)d, input B = work.DUT(fast)d, output OUT = work.DUT(fast)d                 718                  13                 705
# adder: input A = 0000000000000000000000000000000000000000000000000000001011001110, input B = 0000000000000000000000000000000000000000000000000000000000001101, output OUT = 0000000000000000000000000000000000000000000000000000001011000001
# refmod: input A =                   718, input B =                    13, output OUT =                   731
# refmod: input A = 0000000000000000000000000000000000000000000000000000001011001110, input B = 0000000000000000000000000000000000000000000000000000000000001101, output OUT = 0000000000000000000000000000000000000000000000000000001011011011
# UVM_INFO @ 135: reporter [MISCMP] Miscompare for exp.data: lhs = 'h2db : rhs = 'h2c1
# UVM_INFO @ 135: reporter [MISCMP] 1 Miscompare(s) for object tr@825 vs. exp@617
# UVM_WARNING @ 135: uvm_test_top.env_h.comp [Comparator Mismatch] 
# adder: input A = work.DUT(fast)d, input B = work.DUT(fast)d, output OUT = work.DUT(fast)d                 932                  35                 897
# adder: input A = 0000000000000000000000000000000000000000000000000000001110100100, input B = 0000000000000000000000000000000000000000000000000000000000100011, output OUT = 0000000000000000000000000000000000000000000000000000001110000001
# refmod: input A =                   932, input B =                    35, output OUT =                   967
# refmod: input A = 0000000000000000000000000000000000000000000000000000001110100100, input B = 0000000000000000000000000000000000000000000000000000000000100011, output OUT = 0000000000000000000000000000000000000000000000000000001111000111
# UVM_INFO @ 165: reporter [MISCMP] Miscompare for exp.data: lhs = 'h3c7 : rhs = 'h381
# UVM_INFO @ 165: reporter [MISCMP] 1 Miscompare(s) for object tr@825 vs. exp@617
# UVM_WARNING @ 165: uvm_test_top.env_h.comp [Comparator Mismatch] 
# adder: input A = work.DUT(fast)d, input B = work.DUT(fast)d, output OUT = work.DUT(fast)d                 784                  58                 726
# adder: input A = 0000000000000000000000000000000000000000000000000000001100010000, input B = 0000000000000000000000000000000000000000000000000000000000111010, output OUT = 0000000000000000000000000000000000000000000000000000001011010110
# refmod: input A =                   784, input B =                    58, output OUT =                   842
# refmod: input A = 0000000000000000000000000000000000000000000000000000001100010000, input B = 0000000000000000000000000000000000000000000000000000000000111010, output OUT = 0000000000000000000000000000000000000000000000000000001101001010
# UVM_INFO @ 195: reporter [MISCMP] Miscompare for exp.data: lhs = 'h34a : rhs = 'h2d6
# UVM_INFO @ 195: reporter [MISCMP] 1 Miscompare(s) for object tr@825 vs. exp@617
# UVM_WARNING @ 195: uvm_test_top.env_h.comp [Comparator Mismatch] 
# adder: input A = work.DUT(fast)d, input B = work.DUT(fast)d, output OUT = work.DUT(fast)d                 714                  41                 673
# adder: input A = 0000000000000000000000000000000000000000000000000000001011001010, input B = 0000000000000000000000000000000000000000000000000000000000101001, output OUT = 0000000000000000000000000000000000000000000000000000001010100001
# refmod: input A =                   714, input B =                    41, output OUT =                   755
# refmod: input A = 0000000000000000000000000000000000000000000000000000001011001010, input B = 0000000000000000000000000000000000000000000000000000000000101001, output OUT = 0000000000000000000000000000000000000000000000000000001011110011
# UVM_INFO @ 225: reporter [MISCMP] Miscompare for exp.data: lhs = 'h2f3 : rhs = 'h2a1
# UVM_INFO @ 225: reporter [MISCMP] 1 Miscompare(s) for object tr@825 vs. exp@617
# UVM_WARNING @ 225: uvm_test_top.env_h.comp [Comparator Mismatch] 
# adder: input A = work.DUT(fast)d, input B = work.DUT(fast)d, output OUT = work.DUT(fast)d                 913                  51                 862
# adder: input A = 0000000000000000000000000000000000000000000000000000001110010001, input B = 0000000000000000000000000000000000000000000000000000000000110011, output OUT = 0000000000000000000000000000000000000000000000000000001101011110
# refmod: input A =                   913, input B =                    51, output OUT =                   964
# refmod: input A = 0000000000000000000000000000000000000000000000000000001110010001, input B = 0000000000000000000000000000000000000000000000000000000000110011, output OUT = 0000000000000000000000000000000000000000000000000000001111000100
# UVM_INFO @ 255: reporter [MISCMP] Miscompare for exp.data: lhs = 'h3c4 : rhs = 'h35e
# UVM_INFO @ 255: reporter [MISCMP] 1 Miscompare(s) for object tr@825 vs. exp@617
# UVM_WARNING @ 255: uvm_test_top.env_h.comp [Comparator Mismatch] 
# adder: input A = work.DUT(fast)d, input B = work.DUT(fast)d, output OUT = work.DUT(fast)d                 952                  25                 927
# adder: input A = 0000000000000000000000000000000000000000000000000000001110111000, input B = 0000000000000000000000000000000000000000000000000000000000011001, output OUT = 0000000000000000000000000000000000000000000000000000001110011111
# refmod: input A =                   952, input B =                    25, output OUT =                   977
# refmod: input A = 0000000000000000000000000000000000000000000000000000001110111000, input B = 0000000000000000000000000000000000000000000000000000000000011001, output OUT = 0000000000000000000000000000000000000000000000000000001111010001
# UVM_INFO @ 285: reporter [MISCMP] Miscompare for exp.data: lhs = 'h3d1 : rhs = 'h39f
# UVM_INFO @ 285: reporter [MISCMP] 1 Miscompare(s) for object tr@825 vs. exp@617
# UVM_WARNING @ 285: uvm_test_top.env_h.comp [Comparator Mismatch] 
# adder: input A = work.DUT(fast)d, input B = work.DUT(fast)d, output OUT = work.DUT(fast)d                 140                   7                 133
# adder: input A = 0000000000000000000000000000000000000000000000000000000010001100, input B = 0000000000000000000000000000000000000000000000000000000000000111, output OUT = 0000000000000000000000000000000000000000000000000000000010000101
# refmod: input A =                   140, input B =                     7, output OUT =                   147
# refmod: input A = 0000000000000000000000000000000000000000000000000000000010001100, input B = 0000000000000000000000000000000000000000000000000000000000000111, output OUT = 0000000000000000000000000000000000000000000000000000000010010011
# UVM_INFO @ 315: reporter [MISCMP] Miscompare for exp.data: lhs = 'h93 : rhs = 'h85
# UVM_INFO @ 315: reporter [MISCMP] 1 Miscompare(s) for object tr@825 vs. exp@617
# UVM_WARNING @ 315: uvm_test_top.env_h.comp [Comparator Mismatch] 
# adder: input A = work.DUT(fast)d, input B = work.DUT(fast)d, output OUT = work.DUT(fast)d                 602                  18                 584
# adder: input A = 0000000000000000000000000000000000000000000000000000001001011010, input B = 0000000000000000000000000000000000000000000000000000000000010010, output OUT = 0000000000000000000000000000000000000000000000000000001001001000
# refmod: input A =                   602, input B =                    18, output OUT =                   620
# refmod: input A = 0000000000000000000000000000000000000000000000000000001001011010, input B = 0000000000000000000000000000000000000000000000000000000000010010, output OUT = 0000000000000000000000000000000000000000000000000000001001101100
# UVM_INFO @ 345: reporter [MISCMP] Miscompare for exp.data: lhs = 'h26c : rhs = 'h248
# UVM_INFO @ 345: reporter [MISCMP] 1 Miscompare(s) for object tr@825 vs. exp@617
# UVM_WARNING @ 345: uvm_test_top.env_h.comp [Comparator Mismatch] 
# adder: input A = work.DUT(fast)d, input B = work.DUT(fast)d, output OUT = work.DUT(fast)d                 457                  42                 415
# adder: input A = 0000000000000000000000000000000000000000000000000000000111001001, input B = 0000000000000000000000000000000000000000000000000000000000101010, output OUT = 0000000000000000000000000000000000000000000000000000000110011111
# refmod: input A =                   457, input B =                    42, output OUT =                   499
# refmod: input A = 0000000000000000000000000000000000000000000000000000000111001001, input B = 0000000000000000000000000000000000000000000000000000000000101010, output OUT = 0000000000000000000000000000000000000000000000000000000111110011
# UVM_INFO @ 375: reporter [MISCMP] Miscompare for exp.data: lhs = 'h1f3 : rhs = 'h19f
# UVM_INFO @ 375: reporter [MISCMP] 1 Miscompare(s) for object tr@825 vs. exp@617
# UVM_WARNING @ 375: uvm_test_top.env_h.comp [Comparator Mismatch] 
# adder: input A = work.DUT(fast)d, input B = work.DUT(fast)d, output OUT = work.DUT(fast)d                 718                  34                 684
# adder: input A = 0000000000000000000000000000000000000000000000000000001011001110, input B = 0000000000000000000000000000000000000000000000000000000000100010, output OUT = 0000000000000000000000000000000000000000000000000000001010101100
# refmod: input A =                   718, input B =                    34, output OUT =                   752
# refmod: input A = 0000000000000000000000000000000000000000000000000000001011001110, input B = 0000000000000000000000000000000000000000000000000000000000100010, output OUT = 0000000000000000000000000000000000000000000000000000001011110000
# UVM_INFO @ 405: reporter [MISCMP] Miscompare for exp.data: lhs = 'h2f0 : rhs = 'h2ac
# UVM_INFO @ 405: reporter [MISCMP] 1 Miscompare(s) for object tr@825 vs. exp@617
# UVM_WARNING @ 405: uvm_test_top.env_h.comp [Comparator Mismatch] 
# adder: input A = work.DUT(fast)d, input B = work.DUT(fast)d, output OUT = work.DUT(fast)d                 671                  36                 635
# adder: input A = 0000000000000000000000000000000000000000000000000000001010011111, input B = 0000000000000000000000000000000000000000000000000000000000100100, output OUT = 0000000000000000000000000000000000000000000000000000001001111011
# refmod: input A =                   671, input B =                    36, output OUT =                   707
# refmod: input A = 0000000000000000000000000000000000000000000000000000001010011111, input B = 0000000000000000000000000000000000000000000000000000000000100100, output OUT = 0000000000000000000000000000000000000000000000000000001011000011
# UVM_INFO @ 435: reporter [MISCMP] Miscompare for exp.data: lhs = 'h2c3 : rhs = 'h27b
# UVM_INFO @ 435: reporter [MISCMP] 1 Miscompare(s) for object tr@825 vs. exp@617
# UVM_WARNING @ 435: uvm_test_top.env_h.comp [Comparator Mismatch] 
# adder: input A = work.DUT(fast)d, input B = work.DUT(fast)d, output OUT = work.DUT(fast)d                 861                  13                 848
# adder: input A = 0000000000000000000000000000000000000000000000000000001101011101, input B = 0000000000000000000000000000000000000000000000000000000000001101, output OUT = 0000000000000000000000000000000000000000000000000000001101010000
# refmod: input A =                   861, input B =                    13, output OUT =                   874
# refmod: input A = 0000000000000000000000000000000000000000000000000000001101011101, input B = 0000000000000000000000000000000000000000000000000000000000001101, output OUT = 0000000000000000000000000000000000000000000000000000001101101010
# UVM_INFO @ 465: reporter [MISCMP] Miscompare for exp.data: lhs = 'h36a : rhs = 'h350
# UVM_INFO @ 465: reporter [MISCMP] 1 Miscompare(s) for object tr@825 vs. exp@617
# UVM_WARNING @ 465: uvm_test_top.env_h.comp [Comparator Mismatch] 
# adder: input A = work.DUT(fast)d, input B = work.DUT(fast)d, output OUT = work.DUT(fast)d                 318                  13                 305
# adder: input A = 0000000000000000000000000000000000000000000000000000000100111110, input B = 0000000000000000000000000000000000000000000000000000000000001101, output OUT = 0000000000000000000000000000000000000000000000000000000100110001
# refmod: input A =                   318, input B =                    13, output OUT =                   331
# refmod: input A = 0000000000000000000000000000000000000000000000000000000100111110, input B = 0000000000000000000000000000000000000000000000000000000000001101, output OUT = 0000000000000000000000000000000000000000000000000000000101001011
# UVM_INFO @ 495: reporter [MISCMP] Miscompare for exp.data: lhs = 'h14b : rhs = 'h131
# UVM_INFO @ 495: reporter [MISCMP] 1 Miscompare(s) for object tr@825 vs. exp@617
# UVM_WARNING @ 495: uvm_test_top.env_h.comp [Comparator Mismatch] 
# adder: input A = work.DUT(fast)d, input B = work.DUT(fast)d, output OUT = work.DUT(fast)d                 963                   7                 956
# adder: input A = 0000000000000000000000000000000000000000000000000000001111000011, input B = 0000000000000000000000000000000000000000000000000000000000000111, output OUT = 0000000000000000000000000000000000000000000000000000001110111100
# refmod: input A =                   963, input B =                     7, output OUT =                   970
# refmod: input A = 0000000000000000000000000000000000000000000000000000001111000011, input B = 0000000000000000000000000000000000000000000000000000000000000111, output OUT = 0000000000000000000000000000000000000000000000000000001111001010
# UVM_INFO @ 525: reporter [MISCMP] Miscompare for exp.data: lhs = 'h3ca : rhs = 'h3bc
# UVM_INFO @ 525: reporter [MISCMP] 1 Miscompare(s) for object tr@825 vs. exp@617
# UVM_WARNING @ 525: uvm_test_top.env_h.comp [Comparator Mismatch] 
# adder: input A = work.DUT(fast)d, input B = work.DUT(fast)d, output OUT = work.DUT(fast)d                1000                  99                 901
# adder: input A = 0000000000000000000000000000000000000000000000000000001111101000, input B = 0000000000000000000000000000000000000000000000000000000001100011, output OUT = 0000000000000000000000000000000000000000000000000000001110000101
# refmod: input A =                  1000, input B =                    99, output OUT =                  1099
# refmod: input A = 0000000000000000000000000000000000000000000000000000001111101000, input B = 0000000000000000000000000000000000000000000000000000000001100011, output OUT = 0000000000000000000000000000000000000000000000000000010001001011
# UVM_INFO @ 555: reporter [MISCMP] Miscompare for exp.data: lhs = 'h44b : rhs = 'h385
# UVM_INFO @ 555: reporter [MISCMP] 1 Miscompare(s) for object tr@825 vs. exp@617
# UVM_WARNING @ 555: uvm_test_top.env_h.comp [Comparator Mismatch] 
# adder: input A = work.DUT(fast)d, input B = work.DUT(fast)d, output OUT = work.DUT(fast)d                 979                   1                 978
# adder: input A = 0000000000000000000000000000000000000000000000000000001111010011, input B = 0000000000000000000000000000000000000000000000000000000000000001, output OUT = 0000000000000000000000000000000000000000000000000000001111010010
# refmod: input A =                   979, input B =                     1, output OUT =                   980
# refmod: input A = 0000000000000000000000000000000000000000000000000000001111010011, input B = 0000000000000000000000000000000000000000000000000000000000000001, output OUT = 0000000000000000000000000000000000000000000000000000001111010100
# UVM_INFO @ 585: reporter [MISCMP] Miscompare for exp.data: lhs = 'h3d4 : rhs = 'h3d2
# UVM_INFO @ 585: reporter [MISCMP] 1 Miscompare(s) for object tr@825 vs. exp@617
# UVM_WARNING @ 585: uvm_test_top.env_h.comp [Comparator Mismatch] 
# adder: input A = work.DUT(fast)d, input B = work.DUT(fast)d, output OUT = work.DUT(fast)d                 961                  89                 872
# adder: input A = 0000000000000000000000000000000000000000000000000000001111000001, input B = 0000000000000000000000000000000000000000000000000000000001011001, output OUT = 0000000000000000000000000000000000000000000000000000001101101000
# refmod: input A =                   961, input B =                    89, output OUT =                  1050
# refmod: input A = 0000000000000000000000000000000000000000000000000000001111000001, input B = 0000000000000000000000000000000000000000000000000000000001011001, output OUT = 0000000000000000000000000000000000000000000000000000010000011010
# UVM_INFO @ 615: reporter [MISCMP] Miscompare for exp.data: lhs = 'h41a : rhs = 'h368
# UVM_INFO @ 615: reporter [MISCMP] 1 Miscompare(s) for object tr@825 vs. exp@617
# UVM_WARNING @ 615: uvm_test_top.env_h.comp [Comparator Mismatch] 
# adder: input A = work.DUT(fast)d, input B = work.DUT(fast)d, output OUT = work.DUT(fast)d                 495                  28                 467
# adder: input A = 0000000000000000000000000000000000000000000000000000000111101111, input B = 0000000000000000000000000000000000000000000000000000000000011100, output OUT = 0000000000000000000000000000000000000000000000000000000111010011
# refmod: input A =                   495, input B =                    28, output OUT =                   523
# refmod: input A = 0000000000000000000000000000000000000000000000000000000111101111, input B = 0000000000000000000000000000000000000000000000000000000000011100, output OUT = 0000000000000000000000000000000000000000000000000000001000001011
# UVM_INFO @ 645: reporter [MISCMP] Miscompare for exp.data: lhs = 'h20b : rhs = 'h1d3
# UVM_INFO @ 645: reporter [MISCMP] 1 Miscompare(s) for object tr@825 vs. exp@617
# UVM_WARNING @ 645: uvm_test_top.env_h.comp [Comparator Mismatch] 
# adder: input A = work.DUT(fast)d, input B = work.DUT(fast)d, output OUT = work.DUT(fast)d                 610                  56                 554
# adder: input A = 0000000000000000000000000000000000000000000000000000001001100010, input B = 0000000000000000000000000000000000000000000000000000000000111000, output OUT = 0000000000000000000000000000000000000000000000000000001000101010
# refmod: input A =                   610, input B =                    56, output OUT =                   666
# refmod: input A = 0000000000000000000000000000000000000000000000000000001001100010, input B = 0000000000000000000000000000000000000000000000000000000000111000, output OUT = 0000000000000000000000000000000000000000000000000000001010011010
# UVM_INFO @ 675: reporter [MISCMP] Miscompare for exp.data: lhs = 'h29a : rhs = 'h22a
# UVM_INFO @ 675: reporter [MISCMP] 1 Miscompare(s) for object tr@825 vs. exp@617
# UVM_WARNING @ 675: uvm_test_top.env_h.comp [Comparator Mismatch] 
# adder: input A = work.DUT(fast)d, input B = work.DUT(fast)d, output OUT = work.DUT(fast)d                 753                  74                 679
# adder: input A = 0000000000000000000000000000000000000000000000000000001011110001, input B = 0000000000000000000000000000000000000000000000000000000001001010, output OUT = 0000000000000000000000000000000000000000000000000000001010100111
# refmod: input A =                   753, input B =                    74, output OUT =                   827
# refmod: input A = 0000000000000000000000000000000000000000000000000000001011110001, input B = 0000000000000000000000000000000000000000000000000000000001001010, output OUT = 0000000000000000000000000000000000000000000000000000001100111011
# UVM_INFO @ 705: reporter [MISCMP] Miscompare for exp.data: lhs = 'h33b : rhs = 'h2a7
# UVM_INFO @ 705: reporter [MISCMP] 1 Miscompare(s) for object tr@825 vs. exp@617
# UVM_WARNING @ 705: uvm_test_top.env_h.comp [Comparator Mismatch] 
# adder: input A = work.DUT(fast)d, input B = work.DUT(fast)d, output OUT = work.DUT(fast)d                 865                   4                 861
# adder: input A = 0000000000000000000000000000000000000000000000000000001101100001, input B = 0000000000000000000000000000000000000000000000000000000000000100, output OUT = 0000000000000000000000000000000000000000000000000000001101011101
# refmod: input A =                   865, input B =                     4, output OUT =                   869
# refmod: input A = 0000000000000000000000000000000000000000000000000000001101100001, input B = 0000000000000000000000000000000000000000000000000000000000000100, output OUT = 0000000000000000000000000000000000000000000000000000001101100101
# UVM_INFO @ 735: reporter [MISCMP] Miscompare for exp.data: lhs = 'h365 : rhs = 'h35d
# UVM_INFO @ 735: reporter [MISCMP] 1 Miscompare(s) for object tr@825 vs. exp@617
# UVM_WARNING @ 735: uvm_test_top.env_h.comp [Comparator Mismatch] 
# adder: input A = work.DUT(fast)d, input B = work.DUT(fast)d, output OUT = work.DUT(fast)d                 680                   3                 677
# adder: input A = 0000000000000000000000000000000000000000000000000000001010101000, input B = 0000000000000000000000000000000000000000000000000000000000000011, output OUT = 0000000000000000000000000000000000000000000000000000001010100101
# refmod: input A =                   680, input B =                     3, output OUT =                   683
# refmod: input A = 0000000000000000000000000000000000000000000000000000001010101000, input B = 0000000000000000000000000000000000000000000000000000000000000011, output OUT = 0000000000000000000000000000000000000000000000000000001010101011
# UVM_INFO @ 765: reporter [MISCMP] Miscompare for exp.data: lhs = 'h2ab : rhs = 'h2a5
# UVM_INFO @ 765: reporter [MISCMP] 1 Miscompare(s) for object tr@825 vs. exp@617
# UVM_WARNING @ 765: uvm_test_top.env_h.comp [Comparator Mismatch] 
# adder: input A = work.DUT(fast)d, input B = work.DUT(fast)d, output OUT = work.DUT(fast)d                 323                  15                 308
# adder: input A = 0000000000000000000000000000000000000000000000000000000101000011, input B = 0000000000000000000000000000000000000000000000000000000000001111, output OUT = 0000000000000000000000000000000000000000000000000000000100110100
# refmod: input A =                   323, input B =                    15, output OUT =                   338
# refmod: input A = 0000000000000000000000000000000000000000000000000000000101000011, input B = 0000000000000000000000000000000000000000000000000000000000001111, output OUT = 0000000000000000000000000000000000000000000000000000000101010010
# UVM_INFO @ 795: reporter [MISCMP] Miscompare for exp.data: lhs = 'h152 : rhs = 'h134
# UVM_INFO @ 795: reporter [MISCMP] 1 Miscompare(s) for object tr@825 vs. exp@617
# UVM_WARNING @ 795: uvm_test_top.env_h.comp [Comparator Mismatch] 
# adder: input A = work.DUT(fast)d, input B = work.DUT(fast)d, output OUT = work.DUT(fast)d                 542                  50                 492
# adder: input A = 0000000000000000000000000000000000000000000000000000001000011110, input B = 0000000000000000000000000000000000000000000000000000000000110010, output OUT = 0000000000000000000000000000000000000000000000000000000111101100
# refmod: input A =                   542, input B =                    50, output OUT =                   592
# refmod: input A = 0000000000000000000000000000000000000000000000000000001000011110, input B = 0000000000000000000000000000000000000000000000000000000000110010, output OUT = 0000000000000000000000000000000000000000000000000000001001010000
# UVM_INFO @ 825: reporter [MISCMP] Miscompare for exp.data: lhs = 'h250 : rhs = 'h1ec
# UVM_INFO @ 825: reporter [MISCMP] 1 Miscompare(s) for object tr@825 vs. exp@617
# UVM_WARNING @ 825: uvm_test_top.env_h.comp [Comparator Mismatch] 
# adder: input A = work.DUT(fast)d, input B = work.DUT(fast)d, output OUT = work.DUT(fast)d                 999                  93                 906
# adder: input A = 0000000000000000000000000000000000000000000000000000001111100111, input B = 0000000000000000000000000000000000000000000000000000000001011101, output OUT = 0000000000000000000000000000000000000000000000000000001110001010
# refmod: input A =                   999, input B =                    93, output OUT =                  1092
# refmod: input A = 0000000000000000000000000000000000000000000000000000001111100111, input B = 0000000000000000000000000000000000000000000000000000000001011101, output OUT = 0000000000000000000000000000000000000000000000000000010001000100
# UVM_INFO @ 855: reporter [MISCMP] Miscompare for exp.data: lhs = 'h444 : rhs = 'h38a
# UVM_INFO @ 855: reporter [MISCMP] 1 Miscompare(s) for object tr@825 vs. exp@617
# UVM_WARNING @ 855: uvm_test_top.env_h.comp [Comparator Mismatch] 
# adder: input A = work.DUT(fast)d, input B = work.DUT(fast)d, output OUT = work.DUT(fast)d                 982                  91                 891
# adder: input A = 0000000000000000000000000000000000000000000000000000001111010110, input B = 0000000000000000000000000000000000000000000000000000000001011011, output OUT = 0000000000000000000000000000000000000000000000000000001101111011
# refmod: input A =                   982, input B =                    91, output OUT =                  1073
# refmod: input A = 0000000000000000000000000000000000000000000000000000001111010110, input B = 0000000000000000000000000000000000000000000000000000000001011011, output OUT = 0000000000000000000000000000000000000000000000000000010000110001
# UVM_INFO @ 885: reporter [MISCMP] Miscompare for exp.data: lhs = 'h431 : rhs = 'h37b
# UVM_INFO @ 885: reporter [MISCMP] 1 Miscompare(s) for object tr@825 vs. exp@617
# UVM_WARNING @ 885: uvm_test_top.env_h.comp [Comparator Mismatch] 
# adder: input A = work.DUT(fast)d, input B = work.DUT(fast)d, output OUT = work.DUT(fast)d                 868                  71                 797
# adder: input A = 0000000000000000000000000000000000000000000000000000001101100100, input B = 0000000000000000000000000000000000000000000000000000000001000111, output OUT = 0000000000000000000000000000000000000000000000000000001100011101
# refmod: input A =                   868, input B =                    71, output OUT =                   939
# refmod: input A = 0000000000000000000000000000000000000000000000000000001101100100, input B = 0000000000000000000000000000000000000000000000000000000001000111, output OUT = 0000000000000000000000000000000000000000000000000000001110101011
# UVM_INFO @ 915: reporter [MISCMP] Miscompare for exp.data: lhs = 'h3ab : rhs = 'h31d
# UVM_INFO @ 915: reporter [MISCMP] 1 Miscompare(s) for object tr@825 vs. exp@617
# UVM_WARNING @ 915: uvm_test_top.env_h.comp [Comparator Mismatch] 
# adder: input A = work.DUT(fast)d, input B = work.DUT(fast)d, output OUT = work.DUT(fast)d                 144                   4                 140
# adder: input A = 0000000000000000000000000000000000000000000000000000000010010000, input B = 0000000000000000000000000000000000000000000000000000000000000100, output OUT = 0000000000000000000000000000000000000000000000000000000010001100
# refmod: input A =                   144, input B =                     4, output OUT =                   148
# refmod: input A = 0000000000000000000000000000000000000000000000000000000010010000, input B = 0000000000000000000000000000000000000000000000000000000000000100, output OUT = 0000000000000000000000000000000000000000000000000000000010010100
# UVM_INFO @ 945: reporter [MISCMP] Miscompare for exp.data: lhs = 'h94 : rhs = 'h8c
# UVM_INFO @ 945: reporter [MISCMP] 1 Miscompare(s) for object tr@825 vs. exp@617
# UVM_WARNING @ 945: uvm_test_top.env_h.comp [Comparator Mismatch] 
# adder: input A = work.DUT(fast)d, input B = work.DUT(fast)d, output OUT = work.DUT(fast)d                 673                  55                 618
# adder: input A = 0000000000000000000000000000000000000000000000000000001010100001, input B = 0000000000000000000000000000000000000000000000000000000000110111, output OUT = 0000000000000000000000000000000000000000000000000000001001101010
# refmod: input A =                   673, input B =                    55, output OUT =                   728
# refmod: input A = 0000000000000000000000000000000000000000000000000000001010100001, input B = 0000000000000000000000000000000000000000000000000000000000110111, output OUT = 0000000000000000000000000000000000000000000000000000001011011000
# UVM_INFO @ 975: reporter [MISCMP] Miscompare for exp.data: lhs = 'h2d8 : rhs = 'h26a
# UVM_INFO @ 975: reporter [MISCMP] 1 Miscompare(s) for object tr@825 vs. exp@617
# UVM_WARNING @ 975: uvm_test_top.env_h.comp [Comparator Mismatch] 
# adder: input A = work.DUT(fast)d, input B = work.DUT(fast)d, output OUT = work.DUT(fast)d                 791                  25                 766
# adder: input A = 0000000000000000000000000000000000000000000000000000001100010111, input B = 0000000000000000000000000000000000000000000000000000000000011001, output OUT = 0000000000000000000000000000000000000000000000000000001011111110
# refmod: input A =                   791, input B =                    25, output OUT =                   816
# refmod: input A = 0000000000000000000000000000000000000000000000000000001100010111, input B = 0000000000000000000000000000000000000000000000000000000000011001, output OUT = 0000000000000000000000000000000000000000000000000000001100110000
