point_4/questasim/log/transcript_addition_check.txt
# do scripts/simulate.tcl
# QuestaSim-64 vlog 10.7c Compiler 2018.08 Aug 17 2018
# Start time: 22:14:04 on Apr 06,2022
# vlog -sv ../tb/top.sv 
# ** Note: (vlog-2286) ../tb/top.sv(2): Using implicit +incdir+/software/mentor/questa10.7c/questasim/uvm-1.1d/../verilog_src/uvm-1.1d/src from import uvm_pkg
# -- Compiling package top_sv_unit
# -- Importing package mtiUvm.uvm_pkg (uvm-1.1d Built-in)
# ** Warning: ../tb/monitor.sv(49): (vlog-2240) Treating stand-alone use of function 'begin_tr' as an implicit VOID cast.
# ** Warning: ../tb/monitor_out.sv(48): (vlog-2240) Treating stand-alone use of function 'begin_tr' as an implicit VOID cast.
# -- Compiling module adder
# -- Compiling interface dut_if
# -- Compiling module DUT
# -- Compiling module top
# 
# Top level modules:
# 	top
# End time: 22:14:05 on Apr 06,2022, Elapsed time: 0:00:01
# Errors: 0, Warnings: 2
# vsim top 
# Start time: 22:14:05 on Apr 06,2022
# ** Note: (vsim-3813) Design is being optimized due to module recompilation...
# //  Questa Sim-64
# //  Version 10.7c linux_x86_64 Aug 17 2018
# //
# //  Copyright 1991-2018 Mentor Graphics Corporation
# //  All Rights Reserved.
# //
# //  QuestaSim and its associated documentation contain trade
# //  secrets and commercial or financial information that are the property of
# //  Mentor Graphics Corporation and are privileged, confidential,
# //  and exempt from disclosure under the Freedom of Information Act,
# //  5 U.S.C. Section 552. Furthermore, this information
# //  is prohibited from disclosure under the Trade Secrets Act,
# //  18 U.S.C. Section 1905.
# //
# Loading sv_std.std
# Loading mtiUvm.uvm_pkg
# Loading work.top_sv_unit(fast)
# Loading work.top(fast)
# Loading work.DUT(fast)
# Loading mtiUvm.questa_uvm_pkg(fast)
# Loading work.dut_if(fast)
# ** Warning: (vsim-3838) Variable '/top/out/data' written by continuous and procedural assignments. 
# One of the assignments is implicit. See ../src/DUT.sv(9).
#    Time: 0 ns  Iteration: 0  Instance: /top/sum File: ../src/DUT.sv Line: 3
# ** Warning: (vsim-3764) Stand-alone call to function 'begin_tr' treated as implicit void cast.
#    Time: 0 ns  Iteration: 0  Region: /top_sv_unit::driver File: ../tb/driver.sv Line: 67
# Loading /software/mentor/questa10.7c/questasim/uvm-1.1d/linux_x86_64/uvm_dpi.so
# ----------------------------------------------------------------
# UVM-1.1d
# (C) 2007-2013 Mentor Graphics Corporation
# (C) 2007-2013 Cadence Design Systems, Inc.
# (C) 2006-2013 Synopsys, Inc.
# (C) 2011-2013 Cypress Semiconductor Corp.
# ----------------------------------------------------------------
# 
#   ***********       IMPORTANT RELEASE NOTES         ************
# 
#   You are using a version of the UVM library that has been compiled
#   with `UVM_NO_DEPRECATED undefined.
#   See http://www.eda.org/svdb/view.php?id=3313 for more details.
# 
#   You are using a version of the UVM library that has been compiled
#   with `UVM_OBJECT_MUST_HAVE_CONSTRUCTOR undefined.
#   See http://www.eda.org/svdb/view.php?id=3770 for more details.
# 
#       (Specify +UVM_NO_RELNOTES to turn off this notice)
# 
# UVM_INFO verilog_src/questa_uvm_pkg-1.2/src/questa_uvm_pkg.sv(215) @ 0: reporter [Questa UVM] QUESTA_UVM-1.2.3
# UVM_INFO verilog_src/questa_uvm_pkg-1.2/src/questa_uvm_pkg.sv(216) @ 0: reporter [Questa UVM]  questa_uvm::init(+struct)
# UVM_INFO @ 0: reporter [RNTST] Running test simple_test...
# adder: input A = work.DUT(fast)d, input B = work.DUT(fast)d, output OUT = work.DUT(fast)d                 823                  30                 853
# adder: input A = 0000000000000000000000000000000000000000000000000000001100110111, input B = 0000000000000000000000000000000000000000000000000000000000011110, output OUT = 0000000000000000000000000000000000000000000000000000001101010101
# refmod: input A =                   823, input B =                    30, output OUT =                   853
# refmod: input A = 0000000000000000000000000000000000000000000000000000001100110111, input B = 0000000000000000000000000000000000000000000000000000000000011110, output OUT = 0000000000000000000000000000000000000000000000000000001101010101
# UVM_INFO @ 45: uvm_test_top.env_h.comp [Comparator Match] 
# adder: input A = work.DUT(fast)d, input B = work.DUT(fast)d, output OUT = work.DUT(fast)d                 700                  10                 710
# adder: input A = 0000000000000000000000000000000000000000000000000000001010111100, input B = 0000000000000000000000000000000000000000000000000000000000001010, output OUT = 0000000000000000000000000000000000000000000000000000001011000110
# refmod: input A =                   700, input B =                    10, output OUT =                   710
# refmod: input A = 0000000000000000000000000000000000000000000000000000001010111100, input B = 0000000000000000000000000000000000000000000000000000000000001010, output OUT = 0000000000000000000000000000000000000000000000000000001011000110
# UVM_INFO @ 75: uvm_test_top.env_h.comp [Comparator Match] 
# adder: input A = work.DUT(fast)d, input B = work.DUT(fast)d, output OUT = work.DUT(fast)d                 713                  16                 729
# adder: input A = 0000000000000000000000000000000000000000000000000000001011001001, input B = 0000000000000000000000000000000000000000000000000000000000010000, output OUT = 0000000000000000000000000000000000000000000000000000001011011001
# refmod: input A =                   713, input B =                    16, output OUT =                   729
# refmod: input A = 0000000000000000000000000000000000000000000000000000001011001001, input B = 0000000000000000000000000000000000000000000000000000000000010000, output OUT = 0000000000000000000000000000000000000000000000000000001011011001
# UVM_INFO @ 105: uvm_test_top.env_h.comp [Comparator Match] 
# adder: input A = work.DUT(fast)d, input B = work.DUT(fast)d, output OUT = work.DUT(fast)d                 718                  13                 731
# adder: input A = 0000000000000000000000000000000000000000000000000000001011001110, input B = 0000000000000000000000000000000000000000000000000000000000001101, output OUT = 0000000000000000000000000000000000000000000000000000001011011011
# refmod: input A =                   718, input B =                    13, output OUT =                   731
# refmod: input A = 0000000000000000000000000000000000000000000000000000001011001110, input B = 0000000000000000000000000000000000000000000000000000000000001101, output OUT = 0000000000000000000000000000000000000000000000000000001011011011
# UVM_INFO @ 135: uvm_test_top.env_h.comp [Comparator Match] 
# adder: input A = work.DUT(fast)d, input B = work.DUT(fast)d, output OUT = work.DUT(fast)d                 932                  35                 967
# adder: input A = 0000000000000000000000000000000000000000000000000000001110100100, input B = 0000000000000000000000000000000000000000000000000000000000100011, output OUT = 0000000000000000000000000000000000000000000000000000001111000111
# refmod: input A =                   932, input B =                    35, output OUT =                   967
# refmod: input A = 0000000000000000000000000000000000000000000000000000001110100100, input B = 0000000000000000000000000000000000000000000000000000000000100011, output OUT = 0000000000000000000000000000000000000000000000000000001111000111
# UVM_INFO @ 165: uvm_test_top.env_h.comp [Comparator Match] 
# adder: input A = work.DUT(fast)d, input B = work.DUT(fast)d, output OUT = work.DUT(fast)d                 784                  58                 842
# adder: input A = 0000000000000000000000000000000000000000000000000000001100010000, input B = 0000000000000000000000000000000000000000000000000000000000111010, output OUT = 0000000000000000000000000000000000000000000000000000001101001010
# refmod: input A =                   784, input B =                    58, output OUT =                   842
# refmod: input A = 0000000000000000000000000000000000000000000000000000001100010000, input B = 0000000000000000000000000000000000000000000000000000000000111010, output OUT = 0000000000000000000000000000000000000000000000000000001101001010
# UVM_INFO @ 195: uvm_test_top.env_h.comp [Comparator Match] 
# adder: input A = work.DUT(fast)d, input B = work.DUT(fast)d, output OUT = work.DUT(fast)d                 714                  41                 755
# adder: input A = 0000000000000000000000000000000000000000000000000000001011001010, input B = 0000000000000000000000000000000000000000000000000000000000101001, output OUT = 0000000000000000000000000000000000000000000000000000001011110011
# refmod: input A =                   714, input B =                    41, output OUT =                   755
# refmod: input A = 0000000000000000000000000000000000000000000000000000001011001010, input B = 0000000000000000000000000000000000000000000000000000000000101001, output OUT = 0000000000000000000000000000000000000000000000000000001011110011
# UVM_INFO @ 225: uvm_test_top.env_h.comp [Comparator Match] 
# adder: input A = work.DUT(fast)d, input B = work.DUT(fast)d, output OUT = work.DUT(fast)d                 913                  51                 964
# adder: input A = 0000000000000000000000000000000000000000000000000000001110010001, input B = 0000000000000000000000000000000000000000000000000000000000110011, output OUT = 0000000000000000000000000000000000000000000000000000001111000100
# refmod: input A =                   913, input B =                    51, output OUT =                   964
# refmod: input A = 0000000000000000000000000000000000000000000000000000001110010001, input B = 0000000000000000000000000000000000000000000000000000000000110011, output OUT = 0000000000000000000000000000000000000000000000000000001111000100
# UVM_INFO @ 255: uvm_test_top.env_h.comp [Comparator Match] 
# adder: input A = work.DUT(fast)d, input B = work.DUT(fast)d, output OUT = work.DUT(fast)d                 952                  25                 977
# adder: input A = 0000000000000000000000000000000000000000000000000000001110111000, input B = 0000000000000000000000000000000000000000000000000000000000011001, output OUT = 0000000000000000000000000000000000000000000000000000001111010001
# refmod: input A =                   952, input B =                    25, output OUT =                   977
# refmod: input A = 0000000000000000000000000000000000000000000000000000001110111000, input B = 0000000000000000000000000000000000000000000000000000000000011001, output OUT = 0000000000000000000000000000000000000000000000000000001111010001
# UVM_INFO @ 285: uvm_test_top.env_h.comp [Comparator Match] 
# adder: input A = work.DUT(fast)d, input B = work.DUT(fast)d, output OUT = work.DUT(fast)d                 140                   7                 147
# adder: input A = 0000000000000000000000000000000000000000000000000000000010001100, input B = 0000000000000000000000000000000000000000000000000000000000000111, output OUT = 0000000000000000000000000000000000000000000000000000000010010011
# refmod: input A =                   140, input B =                     7, output OUT =                   147
# refmod: input A = 0000000000000000000000000000000000000000000000000000000010001100, input B = 0000000000000000000000000000000000000000000000000000000000000111, output OUT = 0000000000000000000000000000000000000000000000000000000010010011
# UVM_INFO @ 315: uvm_test_top.env_h.comp [Comparator Match] 
# adder: input A = work.DUT(fast)d, input B = work.DUT(fast)d, output OUT = work.DUT(fast)d                 602                  18                 620
# adder: input A = 0000000000000000000000000000000000000000000000000000001001011010, input B = 0000000000000000000000000000000000000000000000000000000000010010, output OUT = 0000000000000000000000000000000000000000000000000000001001101100
# refmod: input A =                   602, input B =                    18, output OUT =                   620
# refmod: input A = 0000000000000000000000000000000000000000000000000000001001011010, input B = 0000000000000000000000000000000000000000000000000000000000010010, output OUT = 0000000000000000000000000000000000000000000000000000001001101100
# UVM_INFO @ 345: uvm_test_top.env_h.comp [Comparator Match] 
# adder: input A = work.DUT(fast)d, input B = work.DUT(fast)d, output OUT = work.DUT(fast)d                 457                  42                 499
# adder: input A = 0000000000000000000000000000000000000000000000000000000111001001, input B = 0000000000000000000000000000000000000000000000000000000000101010, output OUT = 0000000000000000000000000000000000000000000000000000000111110011
# refmod: input A =                   457, input B =                    42, output OUT =                   499
# refmod: input A = 0000000000000000000000000000000000000000000000000000000111001001, input B = 0000000000000000000000000000000000000000000000000000000000101010, output OUT = 0000000000000000000000000000000000000000000000000000000111110011
# UVM_INFO @ 375: uvm_test_top.env_h.comp [Comparator Match] 
# adder: input A = work.DUT(fast)d, input B = work.DUT(fast)d, output OUT = work.DUT(fast)d                 718                  34                 752
# adder: input A = 0000000000000000000000000000000000000000000000000000001011001110, input B = 0000000000000000000000000000000000000000000000000000000000100010, output OUT = 0000000000000000000000000000000000000000000000000000001011110000
# refmod: input A =                   718, input B =                    34, output OUT =                   752
# refmod: input A = 0000000000000000000000000000000000000000000000000000001011001110, input B = 0000000000000000000000000000000000000000000000000000000000100010, output OUT = 0000000000000000000000000000000000000000000000000000001011110000
# UVM_INFO @ 405: uvm_test_top.env_h.comp [Comparator Match] 
# adder: input A = work.DUT(fast)d, input B = work.DUT(fast)d, output OUT = work.DUT(fast)d                 671                  36                 707
# adder: input A = 0000000000000000000000000000000000000000000000000000001010011111, input B = 0000000000000000000000000000000000000000000000000000000000100100, output OUT = 0000000000000000000000000000000000000000000000000000001011000011
# refmod: input A =                   671, input B =                    36, output OUT =                   707
# refmod: input A = 0000000000000000000000000000000000000000000000000000001010011111, input B = 0000000000000000000000000000000000000000000000000000000000100100, output OUT = 0000000000000000000000000000000000000000000000000000001011000011
# UVM_INFO @ 435: uvm_test_top.env_h.comp [Comparator Match] 
# adder: input A = work.DUT(fast)d, input B = work.DUT(fast)d, output OUT = work.DUT(fast)d                 861                  13                 874
# adder: input A = 0000000000000000000000000000000000000000000000000000001101011101, input B = 0000000000000000000000000000000000000000000000000000000000001101, output OUT = 0000000000000000000000000000000000000000000000000000001101101010
# refmod: input A =                   861, input B =                    13, output OUT =                   874
# refmod: input A = 0000000000000000000000000000000000000000000000000000001101011101, input B = 0000000000000000000000000000000000000000000000000000000000001101, output OUT = 0000000000000000000000000000000000000000000000000000001101101010
# UVM_INFO @ 465: uvm_test_top.env_h.comp [Comparator Match] 
# adder: input A = work.DUT(fast)d, input B = work.DUT(fast)d, output OUT = work.DUT(fast)d                 318                  13                 331
# adder: input A = 0000000000000000000000000000000000000000000000000000000100111110, input B = 0000000000000000000000000000000000000000000000000000000000001101, output OUT = 0000000000000000000000000000000000000000000000000000000101001011
# refmod: input A =                   318, input B =                    13, output OUT =                   331
# refmod: input A = 0000000000000000000000000000000000000000000000000000000100111110, input B = 0000000000000000000000000000000000000000000000000000000000001101, output OUT = 0000000000000000000000000000000000000000000000000000000101001011
# UVM_INFO @ 495: uvm_test_top.env_h.comp [Comparator Match] 
# adder: input A = work.DUT(fast)d, input B = work.DUT(fast)d, output OUT = work.DUT(fast)d                 963                   7                 970
# adder: input A = 0000000000000000000000000000000000000000000000000000001111000011, input B = 0000000000000000000000000000000000000000000000000000000000000111, output OUT = 0000000000000000000000000000000000000000000000000000001111001010
# refmod: input A =                   963, input B =                     7, output OUT =                   970
# refmod: input A = 0000000000000000000000000000000000000000000000000000001111000011, input B = 0000000000000000000000000000000000000000000000000000000000000111, output OUT = 0000000000000000000000000000000000000000000000000000001111001010
# UVM_INFO @ 525: uvm_test_top.env_h.comp [Comparator Match] 
# adder: input A = work.DUT(fast)d, input B = work.DUT(fast)d, output OUT = work.DUT(fast)d                1000                  99                1099
# adder: input A = 0000000000000000000000000000000000000000000000000000001111101000, input B = 0000000000000000000000000000000000000000000000000000000001100011, output OUT = 0000000000000000000000000000000000000000000000000000010001001011
# refmod: input A =                  1000, input B =                    99, output OUT =                  1099
# refmod: input A = 0000000000000000000000000000000000000000000000000000001111101000, input B = 0000000000000000000000000000000000000000000000000000000001100011, output OUT = 0000000000000000000000000000000000000000000000000000010001001011
# UVM_INFO @ 555: uvm_test_top.env_h.comp [Comparator Match] 
# adder: input A = work.DUT(fast)d, input B = work.DUT(fast)d, output OUT = work.DUT(fast)d                 979                   1                 980
# adder: input A = 0000000000000000000000000000000000000000000000000000001111010011, input B = 0000000000000000000000000000000000000000000000000000000000000001, output OUT = 0000000000000000000000000000000000000000000000000000001111010100
# refmod: input A =                   979, input B =                     1, output OUT =                   980
# refmod: input A = 0000000000000000000000000000000000000000000000000000001111010011, input B = 0000000000000000000000000000000000000000000000000000000000000001, output OUT = 0000000000000000000000000000000000000000000000000000001111010100
# UVM_INFO @ 585: uvm_test_top.env_h.comp [Comparator Match] 
# adder: input A = work.DUT(fast)d, input B = work.DUT(fast)d, output OUT = work.DUT(fast)d                 961                  89                1050
# adder: input A = 0000000000000000000000000000000000000000000000000000001111000001, input B = 0000000000000000000000000000000000000000000000000000000001011001, output OUT = 0000000000000000000000000000000000000000000000000000010000011010
# refmod: input A =                   961, input B =                    89, output OUT =                  1050
# refmod: input A = 0000000000000000000000000000000000000000000000000000001111000001, input B = 0000000000000000000000000000000000000000000000000000000001011001, output OUT = 0000000000000000000000000000000000000000000000000000010000011010
# UVM_INFO @ 615: uvm_test_top.env_h.comp [Comparator Match] 
# adder: input A = work.DUT(fast)d, input B = work.DUT(fast)d, output OUT = work.DUT(fast)d                 495                  28                 523
# adder: input A = 0000000000000000000000000000000000000000000000000000000111101111, input B = 0000000000000000000000000000000000000000000000000000000000011100, output OUT = 0000000000000000000000000000000000000000000000000000001000001011
# refmod: input A =                   495, input B =                    28, output OUT =                   523
# refmod: input A = 0000000000000000000000000000000000000000000000000000000111101111, input B = 0000000000000000000000000000000000000000000000000000000000011100, output OUT = 0000000000000000000000000000000000000000000000000000001000001011
# UVM_INFO @ 645: uvm_test_top.env_h.comp [Comparator Match] 
# adder: input A = work.DUT(fast)d, input B = work.DUT(fast)d, output OUT = work.DUT(fast)d                 610                  56                 666
# adder: input A = 0000000000000000000000000000000000000000000000000000001001100010, input B = 0000000000000000000000000000000000000000000000000000000000111000, output OUT = 0000000000000000000000000000000000000000000000000000001010011010
# refmod: input A =                   610, input B =                    56, output OUT =                   666
# refmod: input A = 0000000000000000000000000000000000000000000000000000001001100010, input B = 0000000000000000000000000000000000000000000000000000000000111000, output OUT = 0000000000000000000000000000000000000000000000000000001010011010
# UVM_INFO @ 675: uvm_test_top.env_h.comp [Comparator Match] 
# adder: input A = work.DUT(fast)d, input B = work.DUT(fast)d, output OUT = work.DUT(fast)d                 753                  74                 827
# adder: input A = 0000000000000000000000000000000000000000000000000000001011110001, input B = 0000000000000000000000000000000000000000000000000000000001001010, output OUT = 0000000000000000000000000000000000000000000000000000001100111011
# refmod: input A =                   753, input B =                    74, output OUT =                   827
# refmod: input A = 0000000000000000000000000000000000000000000000000000001011110001, input B = 0000000000000000000000000000000000000000000000000000000001001010, output OUT = 0000000000000000000000000000000000000000000000000000001100111011
# UVM_INFO @ 705: uvm_test_top.env_h.comp [Comparator Match] 
# adder: input A = work.DUT(fast)d, input B = work.DUT(fast)d, output OUT = work.DUT(fast)d                 865                   4                 869
# adder: input A = 0000000000000000000000000000000000000000000000000000001101100001, input B = 0000000000000000000000000000000000000000000000000000000000000100, output OUT = 0000000000000000000000000000000000000000000000000000001101100101
# refmod: input A =                   865, input B =                     4, output OUT =                   869
# refmod: input A = 0000000000000000000000000000000000000000000000000000001101100001, input B = 0000000000000000000000000000000000000000000000000000000000000100, output OUT = 0000000000000000000000000000000000000000000000000000001101100101
# UVM_INFO @ 735: uvm_test_top.env_h.comp [Comparator Match] 
# adder: input A = work.DUT(fast)d, input B = work.DUT(fast)d, output OUT = work.DUT(fast)d                 680                   3                 683
# adder: input A = 0000000000000000000000000000000000000000000000000000001010101000, input B = 0000000000000000000000000000000000000000000000000000000000000011, output OUT = 0000000000000000000000000000000000000000000000000000001010101011
# refmod: input A =                   680, input B =                     3, output OUT =                   683
# refmod: input A = 0000000000000000000000000000000000000000000000000000001010101000, input B = 0000000000000000000000000000000000000000000000000000000000000011, output OUT = 0000000000000000000000000000000000000000000000000000001010101011
# UVM_INFO @ 765: uvm_test_top.env_h.comp [Comparator Match] 
# adder: input A = work.DUT(fast)d, input B = work.DUT(fast)d, output OUT = work.DUT(fast)d                 323                  15                 338
# adder: input A = 0000000000000000000000000000000000000000000000000000000101000011, input B = 0000000000000000000000000000000000000000000000000000000000001111, output OUT = 0000000000000000000000000000000000000000000000000000000101010010
# refmod: input A =                   323, input B =                    15, output OUT =                   338
# refmod: input A = 0000000000000000000000000000000000000000000000000000000101000011, input B = 0000000000000000000000000000000000000000000000000000000000001111, output OUT = 0000000000000000000000000000000000000000000000000000000101010010
# UVM_INFO @ 795: uvm_test_top.env_h.comp [Comparator Match] 
# adder: input A = work.DUT(fast)d, input B = work.DUT(fast)d, output OUT = work.DUT(fast)d                 542                  50                 592
# adder: input A = 0000000000000000000000000000000000000000000000000000001000011110, input B = 0000000000000000000000000000000000000000000000000000000000110010, output OUT = 0000000000000000000000000000000000000000000000000000001001010000
# refmod: input A =                   542, input B =                    50, output OUT =                   592
# refmod: input A = 0000000000000000000000000000000000000000000000000000001000011110, input B = 0000000000000000000000000000000000000000000000000000000000110010, output OUT = 0000000000000000000000000000000000000000000000000000001001010000
# UVM_INFO @ 825: uvm_test_top.env_h.comp [Comparator Match] 
# adder: input A = work.DUT(fast)d, input B = work.DUT(fast)d, output OUT = work.DUT(fast)d                 999                  93                1092
# adder: input A = 0000000000000000000000000000000000000000000000000000001111100111, input B = 0000000000000000000000000000000000000000000000000000000001011101, output OUT = 0000000000000000000000000000000000000000000000000000010001000100
# refmod: input A =                   999, input B =                    93, output OUT =                  1092
# refmod: input A = 0000000000000000000000000000000000000000000000000000001111100111, input B = 0000000000000000000000000000000000000000000000000000000001011101, output OUT = 0000000000000000000000000000000000000000000000000000010001000100
# UVM_INFO @ 855: uvm_test_top.env_h.comp [Comparator Match] 
# adder: input A = work.DUT(fast)d, input B = work.DUT(fast)d, output OUT = work.DUT(fast)d                 982                  91                1073
# adder: input A = 0000000000000000000000000000000000000000000000000000001111010110, input B = 0000000000000000000000000000000000000000000000000000000001011011, output OUT = 0000000000000000000000000000000000000000000000000000010000110001
# refmod: input A =                   982, input B =                    91, output OUT =                  1073
# refmod: input A = 0000000000000000000000000000000000000000000000000000001111010110, input B = 0000000000000000000000000000000000000000000000000000000001011011, output OUT = 0000000000000000000000000000000000000000000000000000010000110001
# UVM_INFO @ 885: uvm_test_top.env_h.comp [Comparator Match] 
# adder: input A = work.DUT(fast)d, input B = work.DUT(fast)d, output OUT = work.DUT(fast)d                 868                  71                 939
# adder: input A = 0000000000000000000000000000000000000000000000000000001101100100, input B = 0000000000000000000000000000000000000000000000000000000001000111, output OUT = 0000000000000000000000000000000000000000000000000000001110101011
# refmod: input A =                   868, input B =                    71, output OUT =                   939
# refmod: input A = 0000000000000000000000000000000000000000000000000000001101100100, input B = 0000000000000000000000000000000000000000000000000000000001000111, output OUT = 0000000000000000000000000000000000000000000000000000001110101011
# UVM_INFO @ 915: uvm_test_top.env_h.comp [Comparator Match] 
# adder: input A = work.DUT(fast)d, input B = work.DUT(fast)d, output OUT = work.DUT(fast)d                 144                   4                 148
# adder: input A = 0000000000000000000000000000000000000000000000000000000010010000, input B = 0000000000000000000000000000000000000000000000000000000000000100, output OUT = 0000000000000000000000000000000000000000000000000000000010010100
# refmod: input A =                   144, input B =                     4, output OUT =                   148
# refmod: input A = 0000000000000000000000000000000000000000000000000000000010010000, input B = 0000000000000000000000000000000000000000000000000000000000000100, output OUT = 0000000000000000000000000000000000000000000000000000000010010100
# UVM_INFO @ 945: uvm_test_top.env_h.comp [Comparator Match] 
# adder: input A = work.DUT(fast)d, input B = work.DUT(fast)d, output OUT = work.DUT(fast)d                 673                  55                 728
# adder: input A = 0000000000000000000000000000000000000000000000000000001010100001, input B = 0000000000000000000000000000000000000000000000000000000000110111, output OUT = 0000000000000000000000000000000000000000000000000000001011011000
# refmod: input A =                   673, input B =                    55, output OUT =                   728
# refmod: input A = 0000000000000000000000000000000000000000000000000000001010100001, input B = 0000000000000000000000000000000000000000000000000000000000110111, output OUT = 0000000000000000000000000000000000000000000000000000001011011000
# UVM_INFO @ 975: uvm_test_top.env_h.comp [Comparator Match] 
# adder: input A = work.DUT(fast)d, input B = work.DUT(fast)d, output OUT = work.DUT(fast)d                 791                  25                 816
# adder: input A = 0000000000000000000000000000000000000000000000000000001100010111, input B = 0000000000000000000000000000000000000000000000000000000000011001, output OUT = 0000000000000000000000000000000000000000000000000000001100110000
# refmod: input A =                   791, input B =                    25, output OUT =                   816
# refmod: input A = 0000000000000000000000000000000000000000000000000000001100010111, input B = 0000000000000000000000000000000000000000000000000000000000011001, output OUT = 0000000000000000000000000000000000000000000000000000001100110000
# UVM_INFO @ 1005: uvm_test_top.env_h.comp [Comparator Match] 
# adder: input A = work.DUT(fast)d, input B = work.DUT(fast)d, output OUT = work.DUT(fast)d                 353                  32                 385
# adder: input A = 0000000000000000000000000000000000000000000000000000000101100001, input B = 0000000000000000000000000000000000000000000000000000000000100000, output OUT = 0000000000000000000000000000000000000000000000000000000110000001
# refmod: input A =                   353, input B =                    32, output OUT =                   385
# refmod: input A = 0000000000000000000000000000000000000000000000000000000101100001, input B = 0000000000000000000000000000000000000000000000000000000000100000, output OUT = 0000000000000000000000000000000000000000000000000000000110000001
# UVM_INFO @ 1035: uvm_test_top.env_h.comp [Comparator Match] 
# adder: input A = work.DUT(fast)d, input B = work.DUT(fast)d, output OUT = work.DUT(fast)d                 407                  19                 426
# adder: input A = 0000000000000000000000000000000000000000000000000000000110010111, input B = 0000000000000000000000000000000000000000000000000000000000010011, output OUT = 0000000000000000000000000000000000000000000000000000000110101010
# refmod: input A =                   407, input B =                    19, output OUT =                   426
# refmod: input A = 0000000000000000000000000000000000000000000000000000000110010111, input B = 0000000000000000000000000000000000000000000000000000000000010011, output OUT = 0000000000000000000000000000000000000000000000000000000110101010
# UVM_INFO @ 1065: uvm_test_top.env_h.comp [Comparator Match] 
# adder: input A = work.DUT(fast)d, input B = work.DUT(fast)d, output OUT = work.DUT(fast)d                 976                  22                 998
# adder: input A = 0000000000000000000000000000000000000000000000000000001111010000, input B = 0000000000000000000000000000000000000000000000000000000000010110, output OUT = 0000000000000000000000000000000000000000000000000000001111100110
# refmod: input A =                   976, input B =                    22, output OUT =                   998
# refmod: input A = 0000000000000000000000000000000000000000000000000000001111010000, input B = 0000000000000000000000000000000000000000000000000000000000010110, output OUT = 0000000000000000000000000000000000000000000000000000001111100110
# UVM_INFO @ 1095: uvm_test_top.env_h.comp [Comparator Match] 
# adder: input A = work.DUT(fast)d, input B = work.DUT(fast)d, output OUT = work.DUT(fast)d                 929                  60                 989
# adder: input A = 0000000000000000000000000000000000000000000000000000001110100001, input B = 0000000000000000000000000000000000000000000000000000000000111100, output OUT = 0000000000000000000000000000000000000000000000000000001111011101
# refmod: input A =                   929, input B =                    60, output OUT =                   989
# refmod: input A = 0000000000000000000000000000000000000000000000000000001110100001, input B = 0000000000000000000000000000000000000000000000000000000000111100, output OUT = 0000000000000000000000000000000000000000000000000000001111011101
# UVM_INFO @ 1125: uvm_test_top.env_h.comp [Comparator Match] 
# adder: input A = work.DUT(fast)d, input B = work.DUT(fast)d, output OUT = work.DUT(fast)d                 950                  29                 979
# adder: input A = 0000000000000000000000000000000000000000000000000000001110110110, input B = 0000000000000000000000000000000000000000000000000000000000011101, output OUT = 0000000000000000000000000000000000000000000000000000001111010011
# refmod: input A =                   950, input B =                    29, output OUT =                   979
# refmod: input A = 0000000000000000000000000000000000000000000000000000001110110110, input B = 0000000000000000000000000000000000000000000000000000000000011101, output OUT = 0000000000000000000000000000000000000000000000000000001111010011
# UVM_INFO @ 1155: uvm_test_top.env_h.comp [Comparator Match] 
# adder: input A = work.DUT(fast)d, input B = work.DUT(fast)d, output OUT = work.DUT(fast)d                 778                  46                 824
# adder: input A = 0000000000000000000000000000000000000000000000000000001100001010, input B = 0000000000000000000000000000000000000000000000000000000000101110, output OUT = 0000000000000000000000000000000000000000000000000000001100111000
# refmod: input A =                   778, input B =                    46, output OUT =                   824
# refmod: input A = 0000000000000000000000000000000000000000000000000000001100001010, input B = 0000000000000000000000000000000000000000000000000000000000101110, output OUT = 0000000000000000000000000000000000000000000000000000001100111000
# UVM_INFO @ 1185: uvm_test_top.env_h.comp [Comparator Match] 
# adder: input A = work.DUT(fast)d, input B = work.DUT(fast)d, output OUT = work.DUT(fast)d                 443                  32                 475
# adder: input A = 0000000000000000000000000000000000000000000000000000000110111011, input B = 0000000000000000000000000000000000000000000000000000000000100000, output OUT = 0000000000000000000000000000000000000000000000000000000111011011
# refmod: input A =                   443, input B =                    32, output OUT =                   475
# refmod: input A = 0000000000000000000000000000000000000000000000000000000110111011, input B = 0000000000000000000000000000000000000000000000000000000000100000, output OUT = 0000000000000000000000000000000000000000000000000000000111011011
# UVM_INFO @ 1215: uvm_test_top.env_h.comp [Comparator Match] 
# adder: input A = work.DUT(fast)d, input B = work.DUT(fast)d, output OUT = work.DUT(fast)d                 590                  42                 632
# adder: input A = 0000000000000000000000000000000000000000000000000000001001001110, input B = 0000000000000000000000000000000000000000000000000000000000101010, output OUT = 0000000000000000000000000000000000000000000000000000001001111000
# refmod: input A =                   590, input B =                    42, output OUT =                   632
# refmod: input A = 0000000000000000000000000000000000000000000000000000001001001110, input B = 0000000000000000000000000000000000000000000000000000000000101010, output OUT = 0000000000000000000000000000000000000000000000000000001001111000
# UVM_INFO @ 1245: uvm_test_top.env_h.comp [Comparator Match] 
# adder: input A = work.DUT(fast)d, input B = work.DUT(fast)d, output OUT = work.DUT(fast)d                 986                  89                1075
# adder: input A = 0000000000000000000000000000000000000000000000000000001111011010, input B = 0000000000000000000000000000000000000000000000000000000001011001, output OUT = 0000000000000000000000000000000000000000000000000000010000110011
# refmod: input A =                   986, input B =                    89, output OUT =                  1075
# refmod: input A = 0000000000000000000000000000000000000000000000000000001111011010, input B = 0000000000000000000000000000000000000000000000000000000001011001, output OUT = 0000000000000000000000000000000000000000000000000000010000110011
# UVM_INFO @ 1275: uvm_test_top.env_h.comp [Comparator Match] 
# adder: input A = work.DUT(fast)d, input B = work.DUT(fast)d, output OUT = work.DUT(fast)d                 916                  90                1006
# adder: input A = 0000000000000000000000000000000000000000000000000000001110010100, input B = 0000000000000000000000000000000000000000000000000000000001011010, output OUT = 0000000000000000000000000000000000000000000000000000001111101110
# refmod: input A =                   916, input B =                    90, output OUT =                  1006
# refmod: input A = 0000000000000000000000000000000000000000000000000000001110010100, input B = 0000000000000000000000000000000000000000000000000000000001011010, output OUT = 0000000000000000000000000000000000000000000000000000001111101110
# UVM_INFO @ 1305: uvm_test_top.env_h.comp [Comparator Match] 
# adder: input A = work.DUT(fast)d, input B = work.DUT(fast)d, output OUT = work.DUT(fast)d                 427                  30                 457
# adder: input A = 0000000000000000000000000000000000000000000000000000000110101011, input B = 0000000000000000000000000000000000000000000000000000000000011110, output OUT = 0000000000000000000000000000000000000000000000000000000111001001
# refmod: input A =                   427, input B =                    30, output OUT =                   457
# refmod: input A = 0000000000000000000000000000000000000000000000000000000110101011, input B = 0000000000000000000000000000000000000000000000000000000000011110, output OUT = 0000000000000000000000000000000000000000000000000000000111001001
# UVM_INFO @ 1335: uvm_test_top.env_h.comp [Comparator Match] 
# adder: input A = work.DUT(fast)d, input B = work.DUT(fast)d, output OUT = work.DUT(fast)d                 491                  43                 534
# adder: input A = 0000000000000000000000000000000000000000000000000000000111101011, input B = 0000000000000000000000000000000000000000000000000000000000101011, output OUT = 0000000000000000000000000000000000000000000000000000001000010110
# refmod: input A =                   491, input B =                    43, output OUT =                   534
