point_2/sim/transcript
# do scripts/simulate.tcl
# QuestaSim-64 vlog 10.7c Compiler 2018.08 Aug 17 2018
# Start time: 22:08:05 on Apr 14,2022
# vlog -sv ../tb/top.sv 
# ** Note: (vlog-2286) ../tb/top.sv(2): Using implicit +incdir+/software/mentor/questa10.7c/questasim/uvm-1.1d/../verilog_src/uvm-1.1d/src from import uvm_pkg
# -- Compiling package top_sv_unit
# -- Importing package mtiUvm.uvm_pkg (uvm-1.1d Built-in)
# ** Warning: ../tb/monitor.sv(49): (vlog-2240) Treating stand-alone use of function 'begin_tr' as an implicit VOID cast.
# ** Warning: ../tb/monitor_out.sv(48): (vlog-2240) Treating stand-alone use of function 'begin_tr' as an implicit VOID cast.
# -- Compiling module adder
# -- Compiling interface dut_if
# -- Compiling module DUT
# -- Compiling module top
# 
# Top level modules:
# 	top
# End time: 22:08:07 on Apr 14,2022, Elapsed time: 0:00:02
# Errors: 0, Warnings: 2
# vsim top 
# Start time: 22:08:07 on Apr 14,2022
# ** Note: (vsim-3813) Design is being optimized due to module recompilation...
# ** Warning: ../tb/monitor.sv(49): (vopt-2240) Treating stand-alone use of function 'begin_tr' as an implicit VOID cast.
# ** Warning: ../tb/monitor_out.sv(48): (vopt-2240) Treating stand-alone use of function 'begin_tr' as an implicit VOID cast.
# //  Questa Sim-64
# //  Version 10.7c linux_x86_64 Aug 17 2018
# //
# //  Copyright 1991-2018 Mentor Graphics Corporation
# //  All Rights Reserved.
# //
# //  QuestaSim and its associated documentation contain trade
# //  secrets and commercial or financial information that are the property of
# //  Mentor Graphics Corporation and are privileged, confidential,
# //  and exempt from disclosure under the Freedom of Information Act,
# //  5 U.S.C. Section 552. Furthermore, this information
# //  is prohibited from disclosure under the Trade Secrets Act,
# //  18 U.S.C. Section 1905.
# //
# Loading sv_std.std
# Loading mtiUvm.uvm_pkg
# Loading work.top_sv_unit(fast)
# Loading work.top(fast)
# Loading work.DUT(fast)
# Loading mtiUvm.questa_uvm_pkg(fast)
# Loading work.dut_if(fast)
# ** Warning: (vsim-3838) Variable '/top/out/data' written by continuous and procedural assignments. 
# One of the assignments is implicit. See ../src/DUT.sv(9).
#    Time: 0 ns  Iteration: 0  Instance: /top/sum File: ../src/DUT.sv Line: 3
# ** Warning: (vsim-3764) Stand-alone call to function 'begin_tr' treated as implicit void cast.
#    Time: 0 ns  Iteration: 0  Region: /top_sv_unit::driver File: ../tb/driver.sv Line: 67
# Loading /software/mentor/questa10.7c/questasim/uvm-1.1d/linux_x86_64/uvm_dpi.so
# ----------------------------------------------------------------
# UVM-1.1d
# (C) 2007-2013 Mentor Graphics Corporation
# (C) 2007-2013 Cadence Design Systems, Inc.
# (C) 2006-2013 Synopsys, Inc.
# (C) 2011-2013 Cypress Semiconductor Corp.
# ----------------------------------------------------------------
# 
#   ***********       IMPORTANT RELEASE NOTES         ************
# 
#   You are using a version of the UVM library that has been compiled
#   with `UVM_NO_DEPRECATED undefined.
#   See http://www.eda.org/svdb/view.php?id=3313 for more details.
# 
#   You are using a version of the UVM library that has been compiled
#   with `UVM_OBJECT_MUST_HAVE_CONSTRUCTOR undefined.
#   See http://www.eda.org/svdb/view.php?id=3770 for more details.
# 
#       (Specify +UVM_NO_RELNOTES to turn off this notice)
# 
# UVM_INFO verilog_src/questa_uvm_pkg-1.2/src/questa_uvm_pkg.sv(215) @ 0: reporter [Questa UVM] QUESTA_UVM-1.2.3
# UVM_INFO verilog_src/questa_uvm_pkg-1.2/src/questa_uvm_pkg.sv(216) @ 0: reporter [Questa UVM]  questa_uvm::init(+struct)
# UVM_INFO @ 0: reporter [RNTST] Running test simple_test...
# adder: input A =                  823, input B =                   30, output OUT =                  853
# adder: input A = 0000000000000337, input B = 000000000000001e, output OUT = 0000000000000355
# refmod: input A =                   823, input B =                    30, output OUT =                   793
# refmod: input A = 0000000000000337, input B = 000000000000001e, output OUT = 0000000000000319
# UVM_INFO @ 45: reporter [MISCMP] Miscompare for exp.data: lhs = 'h319 : rhs = 'h355
# UVM_INFO @ 45: reporter [MISCMP] 1 Miscompare(s) for object tr@825 vs. exp@617
# UVM_WARNING @ 45: uvm_test_top.env_h.comp [Comparator Mismatch] 
# adder: input A =                  700, input B =                   10, output OUT =                  710
# adder: input A = 00000000000002bc, input B = 000000000000000a, output OUT = 00000000000002c6
# refmod: input A =                   700, input B =                    10, output OUT =                   690
# refmod: input A = 00000000000002bc, input B = 000000000000000a, output OUT = 00000000000002b2
# UVM_INFO @ 75: reporter [MISCMP] Miscompare for exp.data: lhs = 'h2b2 : rhs = 'h2c6
# UVM_INFO @ 75: reporter [MISCMP] 1 Miscompare(s) for object tr@825 vs. exp@617
# UVM_WARNING @ 75: uvm_test_top.env_h.comp [Comparator Mismatch] 
# adder: input A =                  713, input B =                   16, output OUT =                  729
# adder: input A = 00000000000002c9, input B = 0000000000000010, output OUT = 00000000000002d9
# refmod: input A =                   713, input B =                    16, output OUT =                   697
# refmod: input A = 00000000000002c9, input B = 0000000000000010, output OUT = 00000000000002b9
# UVM_INFO @ 105: reporter [MISCMP] Miscompare for exp.data: lhs = 'h2b9 : rhs = 'h2d9
# UVM_INFO @ 105: reporter [MISCMP] 1 Miscompare(s) for object tr@825 vs. exp@617
# UVM_WARNING @ 105: uvm_test_top.env_h.comp [Comparator Mismatch] 
# adder: input A =                  718, input B =                   13, output OUT =                  731
# adder: input A = 00000000000002ce, input B = 000000000000000d, output OUT = 00000000000002db
# refmod: input A =                   718, input B =                    13, output OUT =                   705
# refmod: input A = 00000000000002ce, input B = 000000000000000d, output OUT = 00000000000002c1
# UVM_INFO @ 135: reporter [MISCMP] Miscompare for exp.data: lhs = 'h2c1 : rhs = 'h2db
# UVM_INFO @ 135: reporter [MISCMP] 1 Miscompare(s) for object tr@825 vs. exp@617
# UVM_WARNING @ 135: uvm_test_top.env_h.comp [Comparator Mismatch] 
# adder: input A =                  932, input B =                   35, output OUT =                  967
# adder: input A = 00000000000003a4, input B = 0000000000000023, output OUT = 00000000000003c7
# refmod: input A =                   932, input B =                    35, output OUT =                   897
# refmod: input A = 00000000000003a4, input B = 0000000000000023, output OUT = 0000000000000381
# UVM_INFO @ 165: reporter [MISCMP] Miscompare for exp.data: lhs = 'h381 : rhs = 'h3c7
# UVM_INFO @ 165: reporter [MISCMP] 1 Miscompare(s) for object tr@825 vs. exp@617
# UVM_WARNING @ 165: uvm_test_top.env_h.comp [Comparator Mismatch] 
# adder: input A =                  784, input B =                   58, output OUT =                  842
# adder: input A = 0000000000000310, input B = 000000000000003a, output OUT = 000000000000034a
# refmod: input A =                   784, input B =                    58, output OUT =                   726
# refmod: input A = 0000000000000310, input B = 000000000000003a, output OUT = 00000000000002d6
# UVM_INFO @ 195: reporter [MISCMP] Miscompare for exp.data: lhs = 'h2d6 : rhs = 'h34a
# UVM_INFO @ 195: reporter [MISCMP] 1 Miscompare(s) for object tr@825 vs. exp@617
# UVM_WARNING @ 195: uvm_test_top.env_h.comp [Comparator Mismatch] 
# adder: input A =                  714, input B =                   41, output OUT =                  755
# adder: input A = 00000000000002ca, input B = 0000000000000029, output OUT = 00000000000002f3
# refmod: input A =                   714, input B =                    41, output OUT =                   673
# refmod: input A = 00000000000002ca, input B = 0000000000000029, output OUT = 00000000000002a1
# UVM_INFO @ 225: reporter [MISCMP] Miscompare for exp.data: lhs = 'h2a1 : rhs = 'h2f3
# UVM_INFO @ 225: reporter [MISCMP] 1 Miscompare(s) for object tr@825 vs. exp@617
# UVM_WARNING @ 225: uvm_test_top.env_h.comp [Comparator Mismatch] 
# adder: input A =                  913, input B =                   51, output OUT =                  964
# adder: input A = 0000000000000391, input B = 0000000000000033, output OUT = 00000000000003c4
# refmod: input A =                   913, input B =                    51, output OUT =                   862
# refmod: input A = 0000000000000391, input B = 0000000000000033, output OUT = 000000000000035e
# UVM_INFO @ 255: reporter [MISCMP] Miscompare for exp.data: lhs = 'h35e : rhs = 'h3c4
# UVM_INFO @ 255: reporter [MISCMP] 1 Miscompare(s) for object tr@825 vs. exp@617
# UVM_WARNING @ 255: uvm_test_top.env_h.comp [Comparator Mismatch] 
# adder: input A =                  952, input B =                   25, output OUT =                  977
# adder: input A = 00000000000003b8, input B = 0000000000000019, output OUT = 00000000000003d1
# refmod: input A =                   952, input B =                    25, output OUT =                   927
# refmod: input A = 00000000000003b8, input B = 0000000000000019, output OUT = 000000000000039f
# UVM_INFO @ 285: reporter [MISCMP] Miscompare for exp.data: lhs = 'h39f : rhs = 'h3d1
# UVM_INFO @ 285: reporter [MISCMP] 1 Miscompare(s) for object tr@825 vs. exp@617
# UVM_WARNING @ 285: uvm_test_top.env_h.comp [Comparator Mismatch] 
# adder: input A =                  140, input B =                    7, output OUT =                  147
# adder: input A = 000000000000008c, input B = 0000000000000007, output OUT = 0000000000000093
# refmod: input A =                   140, input B =                     7, output OUT =                   133
# refmod: input A = 000000000000008c, input B = 0000000000000007, output OUT = 0000000000000085
# UVM_INFO @ 315: reporter [MISCMP] Miscompare for exp.data: lhs = 'h85 : rhs = 'h93
# UVM_INFO @ 315: reporter [MISCMP] 1 Miscompare(s) for object tr@825 vs. exp@617
# UVM_WARNING @ 315: uvm_test_top.env_h.comp [Comparator Mismatch] 
# adder: input A =                  602, input B =                   18, output OUT =                  620
# adder: input A = 000000000000025a, input B = 0000000000000012, output OUT = 000000000000026c
# refmod: input A =                   602, input B =                    18, output OUT =                   584
# refmod: input A = 000000000000025a, input B = 0000000000000012, output OUT = 0000000000000248
# UVM_INFO @ 345: reporter [MISCMP] Miscompare for exp.data: lhs = 'h248 : rhs = 'h26c
# UVM_INFO @ 345: reporter [MISCMP] 1 Miscompare(s) for object tr@825 vs. exp@617
# UVM_WARNING @ 345: uvm_test_top.env_h.comp [Comparator Mismatch] 
# adder: input A =                  457, input B =                   42, output OUT =                  499
# adder: input A = 00000000000001c9, input B = 000000000000002a, output OUT = 00000000000001f3
# refmod: input A =                   457, input B =                    42, output OUT =                   415
# refmod: input A = 00000000000001c9, input B = 000000000000002a, output OUT = 000000000000019f
# UVM_INFO @ 375: reporter [MISCMP] Miscompare for exp.data: lhs = 'h19f : rhs = 'h1f3
# UVM_INFO @ 375: reporter [MISCMP] 1 Miscompare(s) for object tr@825 vs. exp@617
# UVM_WARNING @ 375: uvm_test_top.env_h.comp [Comparator Mismatch] 
# adder: input A =                  718, input B =                   34, output OUT =                  752
# adder: input A = 00000000000002ce, input B = 0000000000000022, output OUT = 00000000000002f0
# refmod: input A =                   718, input B =                    34, output OUT =                   684
# refmod: input A = 00000000000002ce, input B = 0000000000000022, output OUT = 00000000000002ac
# UVM_INFO @ 405: reporter [MISCMP] Miscompare for exp.data: lhs = 'h2ac : rhs = 'h2f0
# UVM_INFO @ 405: reporter [MISCMP] 1 Miscompare(s) for object tr@825 vs. exp@617
# UVM_WARNING @ 405: uvm_test_top.env_h.comp [Comparator Mismatch] 
# adder: input A =                  671, input B =                   36, output OUT =                  707
# adder: input A = 000000000000029f, input B = 0000000000000024, output OUT = 00000000000002c3
# refmod: input A =                   671, input B =                    36, output OUT =                   635
# refmod: input A = 000000000000029f, input B = 0000000000000024, output OUT = 000000000000027b
# UVM_INFO @ 435: reporter [MISCMP] Miscompare for exp.data: lhs = 'h27b : rhs = 'h2c3
# UVM_INFO @ 435: reporter [MISCMP] 1 Miscompare(s) for object tr@825 vs. exp@617
# UVM_WARNING @ 435: uvm_test_top.env_h.comp [Comparator Mismatch] 
# adder: input A =                  861, input B =                   13, output OUT =                  874
# adder: input A = 000000000000035d, input B = 000000000000000d, output OUT = 000000000000036a
# refmod: input A =                   861, input B =                    13, output OUT =                   848
# refmod: input A = 000000000000035d, input B = 000000000000000d, output OUT = 0000000000000350
# UVM_INFO @ 465: reporter [MISCMP] Miscompare for exp.data: lhs = 'h350 : rhs = 'h36a
# UVM_INFO @ 465: reporter [MISCMP] 1 Miscompare(s) for object tr@825 vs. exp@617
# UVM_WARNING @ 465: uvm_test_top.env_h.comp [Comparator Mismatch] 
# adder: input A =                  318, input B =                   13, output OUT =                  331
# adder: input A = 000000000000013e, input B = 000000000000000d, output OUT = 000000000000014b
# refmod: input A =                   318, input B =                    13, output OUT =                   305
# refmod: input A = 000000000000013e, input B = 000000000000000d, output OUT = 0000000000000131
# UVM_INFO @ 495: reporter [MISCMP] Miscompare for exp.data: lhs = 'h131 : rhs = 'h14b
# UVM_INFO @ 495: reporter [MISCMP] 1 Miscompare(s) for object tr@825 vs. exp@617
# UVM_WARNING @ 495: uvm_test_top.env_h.comp [Comparator Mismatch] 
# adder: input A =                  963, input B =                    7, output OUT =                  970
# adder: input A = 00000000000003c3, input B = 0000000000000007, output OUT = 00000000000003ca
# refmod: input A =                   963, input B =                     7, output OUT =                   956
# refmod: input A = 00000000000003c3, input B = 0000000000000007, output OUT = 00000000000003bc
# UVM_INFO @ 525: reporter [MISCMP] Miscompare for exp.data: lhs = 'h3bc : rhs = 'h3ca
# UVM_INFO @ 525: reporter [MISCMP] 1 Miscompare(s) for object tr@825 vs. exp@617
# UVM_WARNING @ 525: uvm_test_top.env_h.comp [Comparator Mismatch] 
# adder: input A =                 1000, input B =                   99, output OUT =                 1099
# adder: input A = 00000000000003e8, input B = 0000000000000063, output OUT = 000000000000044b
# refmod: input A =                  1000, input B =                    99, output OUT =                   901
# refmod: input A = 00000000000003e8, input B = 0000000000000063, output OUT = 0000000000000385
# UVM_INFO @ 555: reporter [MISCMP] Miscompare for exp.data: lhs = 'h385 : rhs = 'h44b
# UVM_INFO @ 555: reporter [MISCMP] 1 Miscompare(s) for object tr@825 vs. exp@617
# UVM_WARNING @ 555: uvm_test_top.env_h.comp [Comparator Mismatch] 
# adder: input A =                  979, input B =                    1, output OUT =                  980
# adder: input A = 00000000000003d3, input B = 0000000000000001, output OUT = 00000000000003d4
# refmod: input A =                   979, input B =                     1, output OUT =                   978
# refmod: input A = 00000000000003d3, input B = 0000000000000001, output OUT = 00000000000003d2
# UVM_INFO @ 585: reporter [MISCMP] Miscompare for exp.data: lhs = 'h3d2 : rhs = 'h3d4
# UVM_INFO @ 585: reporter [MISCMP] 1 Miscompare(s) for object tr@825 vs. exp@617
# UVM_WARNING @ 585: uvm_test_top.env_h.comp [Comparator Mismatch] 
# adder: input A =                  961, input B =                   89, output OUT =                 1050
# adder: input A = 00000000000003c1, input B = 0000000000000059, output OUT = 000000000000041a
# refmod: input A =                   961, input B =                    89, output OUT =                   872
# refmod: input A = 00000000000003c1, input B = 0000000000000059, output OUT = 0000000000000368
# UVM_INFO @ 615: reporter [MISCMP] Miscompare for exp.data: lhs = 'h368 : rhs = 'h41a
# UVM_INFO @ 615: reporter [MISCMP] 1 Miscompare(s) for object tr@825 vs. exp@617
# UVM_WARNING @ 615: uvm_test_top.env_h.comp [Comparator Mismatch] 
# adder: input A =                  495, input B =                   28, output OUT =                  523
# adder: input A = 00000000000001ef, input B = 000000000000001c, output OUT = 000000000000020b
# refmod: input A =                   495, input B =                    28, output OUT =                   467
# refmod: input A = 00000000000001ef, input B = 000000000000001c, output OUT = 00000000000001d3
# UVM_INFO @ 645: reporter [MISCMP] Miscompare for exp.data: lhs = 'h1d3 : rhs = 'h20b
# UVM_INFO @ 645: reporter [MISCMP] 1 Miscompare(s) for object tr@825 vs. exp@617
# UVM_WARNING @ 645: uvm_test_top.env_h.comp [Comparator Mismatch] 
# adder: input A =                  610, input B =                   56, output OUT =                  666
# adder: input A = 0000000000000262, input B = 0000000000000038, output OUT = 000000000000029a
# refmod: input A =                   610, input B =                    56, output OUT =                   554
# refmod: input A = 0000000000000262, input B = 0000000000000038, output OUT = 000000000000022a
# UVM_INFO @ 675: reporter [MISCMP] Miscompare for exp.data: lhs = 'h22a : rhs = 'h29a
# UVM_INFO @ 675: reporter [MISCMP] 1 Miscompare(s) for object tr@825 vs. exp@617
# UVM_WARNING @ 675: uvm_test_top.env_h.comp [Comparator Mismatch] 
# adder: input A =                  753, input B =                   74, output OUT =                  827
# adder: input A = 00000000000002f1, input B = 000000000000004a, output OUT = 000000000000033b
# refmod: input A =                   753, input B =                    74, output OUT =                   679
# refmod: input A = 00000000000002f1, input B = 000000000000004a, output OUT = 00000000000002a7
# UVM_INFO @ 705: reporter [MISCMP] Miscompare for exp.data: lhs = 'h2a7 : rhs = 'h33b
# UVM_INFO @ 705: reporter [MISCMP] 1 Miscompare(s) for object tr@825 vs. exp@617
# UVM_WARNING @ 705: uvm_test_top.env_h.comp [Comparator Mismatch] 
# adder: input A =                  865, input B =                    4, output OUT =                  869
# adder: input A = 0000000000000361, input B = 0000000000000004, output OUT = 0000000000000365
# refmod: input A =                   865, input B =                     4, output OUT =                   861
# refmod: input A = 0000000000000361, input B = 0000000000000004, output OUT = 000000000000035d
# UVM_INFO @ 735: reporter [MISCMP] Miscompare for exp.data: lhs = 'h35d : rhs = 'h365
# UVM_INFO @ 735: reporter [MISCMP] 1 Miscompare(s) for object tr@825 vs. exp@617
# UVM_WARNING @ 735: uvm_test_top.env_h.comp [Comparator Mismatch] 
# adder: input A =                  680, input B =                    3, output OUT =                  683
# adder: input A = 00000000000002a8, input B = 0000000000000003, output OUT = 00000000000002ab
# refmod: input A =                   680, input B =                     3, output OUT =                   677
# refmod: input A = 00000000000002a8, input B = 0000000000000003, output OUT = 00000000000002a5
# UVM_INFO @ 765: reporter [MISCMP] Miscompare for exp.data: lhs = 'h2a5 : rhs = 'h2ab
# UVM_INFO @ 765: reporter [MISCMP] 1 Miscompare(s) for object tr@825 vs. exp@617
# UVM_WARNING @ 765: uvm_test_top.env_h.comp [Comparator Mismatch] 
# adder: input A =                  323, input B =                   15, output OUT =                  338
# adder: input A = 0000000000000143, input B = 000000000000000f, output OUT = 0000000000000152
# refmod: input A =                   323, input B =                    15, output OUT =                   308
# refmod: input A = 0000000000000143, input B = 000000000000000f, output OUT = 0000000000000134
# UVM_INFO @ 795: reporter [MISCMP] Miscompare for exp.data: lhs = 'h134 : rhs = 'h152
# UVM_INFO @ 795: reporter [MISCMP] 1 Miscompare(s) for object tr@825 vs. exp@617
# UVM_WARNING @ 795: uvm_test_top.env_h.comp [Comparator Mismatch] 
# adder: input A =                  542, input B =                   50, output OUT =                  592
# adder: input A = 000000000000021e, input B = 0000000000000032, output OUT = 0000000000000250
# refmod: input A =                   542, input B =                    50, output OUT =                   492
# refmod: input A = 000000000000021e, input B = 0000000000000032, output OUT = 00000000000001ec
# UVM_INFO @ 825: reporter [MISCMP] Miscompare for exp.data: lhs = 'h1ec : rhs = 'h250
# UVM_INFO @ 825: reporter [MISCMP] 1 Miscompare(s) for object tr@825 vs. exp@617
# UVM_WARNING @ 825: uvm_test_top.env_h.comp [Comparator Mismatch] 
# adder: input A =                  999, input B =                   93, output OUT =                 1092
# adder: input A = 00000000000003e7, input B = 000000000000005d, output OUT = 0000000000000444
# refmod: input A =                   999, input B =                    93, output OUT =                   906
# refmod: input A = 00000000000003e7, input B = 000000000000005d, output OUT = 000000000000038a
# UVM_INFO @ 855: reporter [MISCMP] Miscompare for exp.data: lhs = 'h38a : rhs = 'h444
# UVM_INFO @ 855: reporter [MISCMP] 1 Miscompare(s) for object tr@825 vs. exp@617
# UVM_WARNING @ 855: uvm_test_top.env_h.comp [Comparator Mismatch] 
# adder: input A =                  982, input B =                   91, output OUT =                 1073
# adder: input A = 00000000000003d6, input B = 000000000000005b, output OUT = 0000000000000431
# refmod: input A =                   982, input B =                    91, output OUT =                   891
# refmod: input A = 00000000000003d6, input B = 000000000000005b, output OUT = 000000000000037b
# UVM_INFO @ 885: reporter [MISCMP] Miscompare for exp.data: lhs = 'h37b : rhs = 'h431
# UVM_INFO @ 885: reporter [MISCMP] 1 Miscompare(s) for object tr@825 vs. exp@617
# UVM_WARNING @ 885: uvm_test_top.env_h.comp [Comparator Mismatch] 
# adder: input A =                  868, input B =                   71, output OUT =                  939
# adder: input A = 0000000000000364, input B = 0000000000000047, output OUT = 00000000000003ab
# refmod: input A =                   868, input B =                    71, output OUT =                   797
# refmod: input A = 0000000000000364, input B = 0000000000000047, output OUT = 000000000000031d
# UVM_INFO @ 915: reporter [MISCMP] Miscompare for exp.data: lhs = 'h31d : rhs = 'h3ab
# UVM_INFO @ 915: reporter [MISCMP] 1 Miscompare(s) for object tr@825 vs. exp@617
# UVM_WARNING @ 915: uvm_test_top.env_h.comp [Comparator Mismatch] 
# adder: input A =                  144, input B =                    4, output OUT =                  148
# adder: input A = 0000000000000090, input B = 0000000000000004, output OUT = 0000000000000094
# refmod: input A =                   144, input B =                     4, output OUT =                   140
# refmod: input A = 0000000000000090, input B = 0000000000000004, output OUT = 000000000000008c
# UVM_INFO @ 945: reporter [MISCMP] Miscompare for exp.data: lhs = 'h8c : rhs = 'h94
# UVM_INFO @ 945: reporter [MISCMP] 1 Miscompare(s) for object tr@825 vs. exp@617
# UVM_WARNING @ 945: uvm_test_top.env_h.comp [Comparator Mismatch] 
# adder: input A =                  673, input B =                   55, output OUT =                  728
# adder: input A = 00000000000002a1, input B = 0000000000000037, output OUT = 00000000000002d8
# refmod: input A =                   673, input B =                    55, output OUT =                   618
# refmod: input A = 00000000000002a1, input B = 0000000000000037, output OUT = 000000000000026a
# UVM_INFO @ 975: reporter [MISCMP] Miscompare for exp.data: lhs = 'h26a : rhs = 'h2d8
# UVM_INFO @ 975: reporter [MISCMP] 1 Miscompare(s) for object tr@825 vs. exp@617
# UVM_WARNING @ 975: uvm_test_top.env_h.comp [Comparator Mismatch] 
# adder: input A =                  791, input B =                   25, output OUT =                  816
# adder: input A = 0000000000000317, input B = 0000000000000019, output OUT = 0000000000000330
# refmod: input A =                   791, input B =                    25, output OUT =                   766
# refmod: input A = 0000000000000317, input B = 0000000000000019, output OUT = 00000000000002fe
# UVM_INFO @ 1005: reporter [MISCMP] Miscompare for exp.data: lhs = 'h2fe : rhs = 'h330
# UVM_INFO @ 1005: reporter [MISCMP] 1 Miscompare(s) for object tr@825 vs. exp@617
# UVM_WARNING @ 1005: uvm_test_top.env_h.comp [Comparator Mismatch] 
# adder: input A =                  353, input B =                   32, output OUT =                  385
# adder: input A = 0000000000000161, input B = 0000000000000020, output OUT = 0000000000000181
# refmod: input A =                   353, input B =                    32, output OUT =                   321
# refmod: input A = 0000000000000161, input B = 0000000000000020, output OUT = 0000000000000141
# UVM_INFO @ 1035: reporter [MISCMP] Miscompare for exp.data: lhs = 'h141 : rhs = 'h181
# UVM_INFO @ 1035: reporter [MISCMP] 1 Miscompare(s) for object tr@825 vs. exp@617
# UVM_WARNING @ 1035: uvm_test_top.env_h.comp [Comparator Mismatch] 
# adder: input A =                  407, input B =                   19, output OUT =                  426
# adder: input A = 0000000000000197, input B = 0000000000000013, output OUT = 00000000000001aa
# refmod: input A =                   407, input B =                    19, output OUT =                   388
# refmod: input A = 0000000000000197, input B = 0000000000000013, output OUT = 0000000000000184
# UVM_INFO @ 1065: reporter [MISCMP] Miscompare for exp.data: lhs = 'h184 : rhs = 'h1aa
# UVM_INFO @ 1065: reporter [MISCMP] 1 Miscompare(s) for object tr@825 vs. exp@617
# UVM_WARNING @ 1065: uvm_test_top.env_h.comp [Comparator Mismatch] 
# adder: input A =                  976, input B =                   22, output OUT =                  998
# adder: input A = 00000000000003d0, input B = 0000000000000016, output OUT = 00000000000003e6
# refmod: input A =                   976, input B =                    22, output OUT =                   954
# refmod: input A = 00000000000003d0, input B = 0000000000000016, output OUT = 00000000000003ba
# UVM_INFO @ 1095: reporter [MISCMP] Miscompare for exp.data: lhs = 'h3ba : rhs = 'h3e6
# UVM_INFO @ 1095: reporter [MISCMP] 1 Miscompare(s) for object tr@825 vs. exp@617
# UVM_WARNING @ 1095: uvm_test_top.env_h.comp [Comparator Mismatch] 
# adder: input A =                  929, input B =                   60, output OUT =                  989
# adder: input A = 00000000000003a1, input B = 000000000000003c, output OUT = 00000000000003dd
# refmod: input A =                   929, input B =                    60, output OUT =                   869
# refmod: input A = 00000000000003a1, input B = 000000000000003c, output OUT = 0000000000000365
# UVM_INFO @ 1125: reporter [MISCMP] Miscompare for exp.data: lhs = 'h365 : rhs = 'h3dd
# UVM_INFO @ 1125: reporter [MISCMP] 1 Miscompare(s) for object tr@825 vs. exp@617
# UVM_WARNING @ 1125: uvm_test_top.env_h.comp [Comparator Mismatch] 
# adder: input A =                  950, input B =                   29, output OUT =                  979
# adder: input A = 00000000000003b6, input B = 000000000000001d, output OUT = 00000000000003d3
# refmod: input A =                   950, input B =                    29, output OUT =                   921
# refmod: input A = 00000000000003b6, input B = 000000000000001d, output OUT = 0000000000000399
# UVM_INFO @ 1155: reporter [MISCMP] Miscompare for exp.data: lhs = 'h399 : rhs = 'h3d3
# UVM_INFO @ 1155: reporter [MISCMP] 1 Miscompare(s) for object tr@825 vs. exp@617
# UVM_WARNING @ 1155: uvm_test_top.env_h.comp [Comparator Mismatch] 
# adder: input A =                  778, input B =                   46, output OUT =                  824
# adder: input A = 000000000000030a, input B = 000000000000002e, output OUT = 0000000000000338
# refmod: input A =                   778, input B =                    46, output OUT =                   732
# refmod: input A = 000000000000030a, input B = 000000000000002e, output OUT = 00000000000002dc
# UVM_INFO @ 1185: reporter [MISCMP] Miscompare for exp.data: lhs = 'h2dc : rhs = 'h338
# UVM_INFO @ 1185: reporter [MISCMP] 1 Miscompare(s) for object tr@825 vs. exp@617
# UVM_WARNING @ 1185: uvm_test_top.env_h.comp [Comparator Mismatch] 
# adder: input A =                  443, input B =                   32, output OUT =                  475
# adder: input A = 00000000000001bb, input B = 0000000000000020, output OUT = 00000000000001db
# refmod: input A =                   443, input B =                    32, output OUT =                   411
# refmod: input A = 00000000000001bb, input B = 0000000000000020, output OUT = 000000000000019b
# UVM_INFO @ 1215: reporter [MISCMP] Miscompare for exp.data: lhs = 'h19b : rhs = 'h1db
# UVM_INFO @ 1215: reporter [MISCMP] 1 Miscompare(s) for object tr@825 vs. exp@617
# UVM_WARNING @ 1215: uvm_test_top.env_h.comp [Comparator Mismatch] 
# adder: input A =                  590, input B =                   42, output OUT =                  632
# adder: input A = 000000000000024e, input B = 000000000000002a, output OUT = 0000000000000278
# refmod: input A =                   590, input B =                    42, output OUT =                   548
# refmod: input A = 000000000000024e, input B = 000000000000002a, output OUT = 0000000000000224
# UVM_INFO @ 1245: reporter [MISCMP] Miscompare for exp.data: lhs = 'h224 : rhs = 'h278
# UVM_INFO @ 1245: reporter [MISCMP] 1 Miscompare(s) for object tr@825 vs. exp@617
# UVM_WARNING @ 1245: uvm_test_top.env_h.comp [Comparator Mismatch] 
# adder: input A =                  986, input B =                   89, output OUT =                 1075
# adder: input A = 00000000000003da, input B = 0000000000000059, output OUT = 0000000000000433
# refmod: input A =                   986, input B =                    89, output OUT =                   897
# refmod: input A = 00000000000003da, input B = 0000000000000059, output OUT = 0000000000000381
# UVM_INFO @ 1275: reporter [MISCMP] Miscompare for exp.data: lhs = 'h381 : rhs = 'h433
# UVM_INFO @ 1275: reporter [MISCMP] 1 Miscompare(s) for object tr@825 vs. exp@617
# UVM_WARNING @ 1275: uvm_test_top.env_h.comp [Comparator Mismatch] 
# adder: input A =                  916, input B =                   90, output OUT =                 1006
# adder: input A = 0000000000000394, input B = 000000000000005a, output OUT = 00000000000003ee
# refmod: input A =                   916, input B =                    90, output OUT =                   826
# refmod: input A = 0000000000000394, input B = 000000000000005a, output OUT = 000000000000033a
# UVM_INFO @ 1305: reporter [MISCMP] Miscompare for exp.data: lhs = 'h33a : rhs = 'h3ee
# UVM_INFO @ 1305: reporter [MISCMP] 1 Miscompare(s) for object tr@825 vs. exp@617
# UVM_WARNING @ 1305: uvm_test_top.env_h.comp [Comparator Mismatch] 
# adder: input A =                  427, input B =                   30, output OUT =                  457
# adder: input A = 00000000000001ab, input B = 000000000000001e, output OUT = 00000000000001c9
# refmod: input A =                   427, input B =                    30, output OUT =                   397
# refmod: input A = 00000000000001ab, input B = 000000000000001e, output OUT = 000000000000018d
# UVM_INFO @ 1335: reporter [MISCMP] Miscompare for exp.data: lhs = 'h18d : rhs = 'h1c9
# UVM_INFO @ 1335: reporter [MISCMP] 1 Miscompare(s) for object tr@825 vs. exp@617
# UVM_WARNING @ 1335: uvm_test_top.env_h.comp [Comparator Mismatch] 
# adder: input A =                  491, input B =                   43, output OUT =                  534
# adder: input A = 00000000000001eb, input B = 000000000000002b, output OUT = 0000000000000216
# refmod: input A =                   491, input B =                    43, output OUT =                   448
# refmod: input A = 00000000000001eb, input B = 000000000000002b, output OUT = 00000000000001c0
# UVM_INFO @ 1365: reporter [MISCMP] Miscompare for exp.data: lhs = 'h1c0 : rhs = 'h216
# UVM_INFO @ 1365: reporter [MISCMP] 1 Miscompare(s) for object tr@825 vs. exp@617
# UVM_WARNING @ 1365: uvm_test_top.env_h.comp [Comparator Mismatch] 
# adder: input A =                  738, input B =                    2, output OUT =                  740
# adder: input A = 00000000000002e2, input B = 0000000000000002, output OUT = 00000000000002e4
# refmod: input A =                   738, input B =                     2, output OUT =                   736
# refmod: input A = 00000000000002e2, input B = 0000000000000002, output OUT = 00000000000002e0
# UVM_INFO @ 1395: reporter [MISCMP] Miscompare for exp.data: lhs = 'h2e0 : rhs = 'h2e4
# UVM_INFO @ 1395: reporter [MISCMP] 1 Miscompare(s) for object tr@825 vs. exp@617
# UVM_WARNING @ 1395: uvm_test_top.env_h.comp [Comparator Mismatch] 
# adder: input A =                  922, input B =                   79, output OUT =                 1001
# adder: input A = 000000000000039a, input B = 000000000000004f, output OUT = 00000000000003e9
# refmod: input A =                   922, input B =                    79, output OUT =                   843
# refmod: input A = 000000000000039a, input B = 000000000000004f, output OUT = 000000000000034b
# UVM_INFO @ 1425: reporter [MISCMP] Miscompare for exp.data: lhs = 'h34b : rhs = 'h3e9
